<?xml version="1.0" encoding="UTF-8" standalone="no"?><svg xmlns="http://www.w3.org/2000/svg" xmlns:xlink="http://www.w3.org/1999/xlink" contentScriptType="application/ecmascript" contentStyleType="text/css" height="108px" preserveAspectRatio="none" style="width:329px;height:108px;" version="1.1" viewBox="0 0 329 108" width="329px" zoomAndPan="magnify"><defs><filter height="300%" id="f4tpoobg2frh0" width="300%" x="-1" y="-1"><feGaussianBlur result="blurOut" stdDeviation="2.0"/><feColorMatrix in="blurOut" result="blurOut2" type="matrix" values="0 0 0 0 0 0 0 0 0 0 0 0 0 0 0 0 0 0 .4 0"/><feOffset dx="4.0" dy="4.0" in="blurOut2" result="blurOut3"/><feBlend in="SourceGraphic" in2="blurOut3" mode="normal"/></filter></defs><g><path d="M10,14.418 L10,39.5508 A0,0 0 0 0 10,39.5508 L82,39.5508 A0,0 0 0 0 82,39.5508 L82,32.418 L102,26.9844 L82,24.418 L82,24.418 L72,14.418 L10,14.418 A0,0 0 0 0 10,14.418 " fill="#FBFB77" filter="url(#f4tpoobg2frh0)" style="stroke: #A80036; stroke-width: 1.0;"/><path d="M72,14.418 L72,24.418 L82,24.418 L72,14.418 " fill="#FBFB77" style="stroke: #A80036; stroke-width: 1.0;"/><text fill="#000000" font-family="sans-serif" font-size="13" lengthAdjust="spacingAndGlyphs" textLength="51" x="16" y="31.4849">Getränk</text><rect fill="#FEFECE" filter="url(#f4tpoobg2frh0)" height="33.9688" rx="12.5" ry="12.5" style="stroke: #A80036; stroke-width: 1.5;" width="132" x="102" y="10"/><text fill="#000000" font-family="sans-serif" font-size="12" lengthAdjust="spacingAndGlyphs" textLength="112" x="112" y="31.1387">Getränk bestellen</text><path d="M246.5,68.3867 L246.5,76.9531 L226.5,80.9531 L246.5,84.9531 L246.5,93.5195 A0,0 0 0 0 246.5,93.5195 L317.5,93.5195 A0,0 0 0 0 317.5,93.5195 L317.5,78.3867 L307.5,68.3867 L246.5,68.3867 A0,0 0 0 0 246.5,68.3867 " fill="#FBFB77" filter="url(#f4tpoobg2frh0)" style="stroke: #A80036; stroke-width: 1.0;"/><path d="M307.5,68.3867 L307.5,78.3867 L317.5,78.3867 L307.5,68.3867 " fill="#FBFB77" style="stroke: #A80036; stroke-width: 1.0;"/><text fill="#000000" font-family="sans-serif" font-size="13" lengthAdjust="spacingAndGlyphs" textLength="50" x="252.5" y="85.4536">Cocktail</text><rect fill="#FEFECE" filter="url(#f4tpoobg2frh0)" height="33.9688" rx="12.5" ry="12.5" style="stroke: #A80036; stroke-width: 1.5;" width="117" x="109.5" y="63.9688"/><text fill="#000000" font-family="sans-serif" font-size="12" lengthAdjust="spacingAndGlyphs" textLength="97" x="119.5" y="85.1074">Cocktail trinken</text><line style="stroke: #A80036; stroke-width: 1.5;" x1="168" x2="168" y1="43.9688" y2="63.9688"/><polygon fill="#A80036" points="164,53.9688,168,63.9688,172,53.9688,168,57.9688" style="stroke: #A80036; stroke-width: 1.0;"/><!--MD5=[64e93429c7e325604c3684950d934397]
@startuml
:Getr&#228;nk bestellen;
note left: Getr&#228;nk
:Cocktail trinken;
note right: Cocktail
@enduml

PlantUML version 1.2020.12(Sat Jun 06 12:54:15 CEST 2020)
(GPL source distribution)
Java Runtime: OpenJDK Runtime Environment
JVM: OpenJDK 64-Bit Server VM
Default Encoding: UTF-8
Language: de
Country: DE
--></g></svg>