<?xml version="1.0" encoding="UTF-8" standalone="no"?>
<svg xmlns="http://www.w3.org/2000/svg" xmlns:xlink="http://www.w3.org/1999/xlink" contentScriptType="application/ecmascript" contentStyleType="text/css" height="245px" preserveAspectRatio="none" style="width:125px;height:245px;" version="1.1" viewBox="0 0 125 245" width="125px" zoomAndPan="magnify"><defs><filter height="300%" id="f3d5br0xy8qha" width="300%" x="-1" y="-1"><feGaussianBlur result="blurOut" stdDeviation="2.0"/><feColorMatrix in="blurOut" result="blurOut2" type="matrix" values="0 0 0 0 0 0 0 0 0 0 0 0 0 0 0 0 0 0 .4 0"/><feOffset dx="4.0" dy="4.0" in="blurOut2" result="blurOut3"/><feBlend in="SourceGraphic" in2="blurOut3" mode="normal"/></filter></defs><g><!--MD5=[e846c8c2f2dddc7a8fdea41dc9522239]
class ISortable--><rect fill="#FEFECE" filter="url(#f3d5br0xy8qha)" height="79.5469" id="ISortable" style="stroke: #A80036; stroke-width: 1.5;" width="108" x="6" y="8"/><ellipse cx="26.4" cy="26.9688" fill="#ADD1B2" rx="11" ry="11" style="stroke: #A80036; stroke-width: 1.0;"/><path d="M28.7438,22.6406 C27.8063,22.2031 27.2125,22.0625 26.3375,22.0625 C23.7125,22.0625 21.7125,24.1406 21.7125,26.8594 L21.7125,27.9844 C21.7125,30.5625 23.8219,32.4531 26.7125,32.4531 C27.9313,32.4531 29.0875,32.1563 29.8375,31.6094 C30.4156,31.2031 30.7438,30.75 30.7438,30.3594 C30.7438,29.9063 30.3531,29.5156 29.8844,29.5156 C29.6656,29.5156 29.4625,29.5938 29.275,29.7813 C28.8219,30.2656 28.8219,30.2656 28.6344,30.3594 C28.2125,30.625 27.525,30.75 26.7594,30.75 C24.7125,30.75 23.4156,29.6563 23.4156,27.9531 L23.4156,26.8594 C23.4156,25.0781 24.6656,23.7656 26.4,23.7656 C26.9781,23.7656 27.5875,23.9219 28.0563,24.1719 C28.5406,24.4531 28.7125,24.6719 28.8063,25.0781 C28.8688,25.4844 28.9,25.6094 29.0406,25.7344 C29.1813,25.875 29.4156,25.9844 29.6344,25.9844 C29.9,25.9844 30.1656,25.8438 30.3375,25.625 C30.4469,25.4688 30.4781,25.2813 30.4781,24.8594 L30.4781,23.4375 C30.4781,23 30.4625,22.875 30.3688,22.7188 C30.2125,22.4531 29.9313,22.3125 29.6344,22.3125 C29.3375,22.3125 29.1344,22.4063 28.9156,22.7188 L28.7438,22.6406 Z "/><text fill="#000000" font-family="sans-serif" font-size="12" font-style="italic" lengthAdjust="spacingAndGlyphs" textLength="68" x="39.6" y="24.1387">«Interface»</text><text fill="#000000" font-family="sans-serif" font-size="12" lengthAdjust="spacingAndGlyphs" textLength="54" x="46.6" y="38.1074">ISortable</text><line style="stroke: #A80036; stroke-width: 1.5;" x1="7" x2="113" y1="45.9375" y2="45.9375"/><line style="stroke: #A80036; stroke-width: 1.5;" x1="7" x2="113" y1="53.9375" y2="53.9375"/><text fill="#000000" font-family="sans-serif" font-size="11" lengthAdjust="spacingAndGlyphs" textLength="96" x="12" y="68.1479">isGreater() : void</text><text fill="#000000" font-family="sans-serif" font-size="11" lengthAdjust="spacingAndGlyphs" textLength="83" x="12" y="80.9526">isEqual() : void</text><!--MD5=[9df70cf33be424c1b8543b3f439cae89]
class String--><rect fill="#FEFECE" filter="url(#f3d5br0xy8qha)" height="86.4141" id="String" style="stroke: #A80036; stroke-width: 1.5;" width="108" x="6" y="148"/><ellipse cx="39.45" cy="164" fill="#ADD1B2" rx="11" ry="11" style="stroke: #A80036; stroke-width: 1.0;"/><path d="M41.7938,159.6719 C40.8563,159.2344 40.2625,159.0938 39.3875,159.0938 C36.7625,159.0938 34.7625,161.1719 34.7625,163.8906 L34.7625,165.0156 C34.7625,167.5938 36.8719,169.4844 39.7625,169.4844 C40.9813,169.4844 42.1375,169.1875 42.8875,168.6406 C43.4656,168.2344 43.7938,167.7813 43.7938,167.3906 C43.7938,166.9375 43.4031,166.5469 42.9344,166.5469 C42.7156,166.5469 42.5125,166.625 42.325,166.8125 C41.8719,167.2969 41.8719,167.2969 41.6844,167.3906 C41.2625,167.6563 40.575,167.7813 39.8094,167.7813 C37.7625,167.7813 36.4656,166.6875 36.4656,164.9844 L36.4656,163.8906 C36.4656,162.1094 37.7156,160.7969 39.45,160.7969 C40.0281,160.7969 40.6375,160.9531 41.1063,161.2031 C41.5906,161.4844 41.7625,161.7031 41.8563,162.1094 C41.9188,162.5156 41.95,162.6406 42.0906,162.7656 C42.2313,162.9063 42.4656,163.0156 42.6844,163.0156 C42.95,163.0156 43.2156,162.875 43.3875,162.6563 C43.4969,162.5 43.5281,162.3125 43.5281,161.8906 L43.5281,160.4688 C43.5281,160.0313 43.5125,159.9063 43.4188,159.75 C43.2625,159.4844 42.9813,159.3438 42.6844,159.3438 C42.3875,159.3438 42.1844,159.4375 41.9656,159.75 L41.7938,159.6719 Z "/><text fill="#000000" font-family="sans-serif" font-size="12" lengthAdjust="spacingAndGlyphs" textLength="35" x="57.55" y="168.1543">String</text><line style="stroke: #A80036; stroke-width: 1.5;" x1="7" x2="113" y1="180" y2="180"/><text fill="#000000" font-family="sans-serif" font-size="11" lengthAdjust="spacingAndGlyphs" textLength="61" x="12" y="194.2104">length : int</text><line style="stroke: #A80036; stroke-width: 1.5;" x1="7" x2="113" y1="200.8047" y2="200.8047"/><text fill="#000000" font-family="sans-serif" font-size="11" lengthAdjust="spacingAndGlyphs" textLength="96" x="12" y="215.0151">isGreater() : void</text><text fill="#000000" font-family="sans-serif" font-size="11" lengthAdjust="spacingAndGlyphs" textLength="83" x="12" y="227.8198">isEqual() : void</text><!--MD5=[3016d38f9b2b7df6243f400507bcd43e]
reverse link ISortable to String--><path d="M60,108.44 C60,121.732 60,135.5619 60,147.9758 " fill="none" id="ISortable&lt;-String" style="stroke: #A80036; stroke-width: 1.0; stroke-dasharray: 7.0,7.0;"/><polygon fill="none" points="53.0001,108.276,60,88.276,67.0001,108.276,53.0001,108.276" style="stroke: #A80036; stroke-width: 1.0;"/><!--MD5=[c8cdeafb50109f9a3ee6c58c0e78d5a0]
@startuml
class ISortable <<Interface>> {
isGreater() : void
isEqual() : void
}

ISortable<|..String

class String{
  length : int
  isGreater() : void
  isEqual() : void
}
@enduml

PlantUML version 1.2020.11(Sat May 30 10:13:43 UTC 2020)
(GPL source distribution)
Java Runtime: Java(TM) SE Runtime Environment
JVM: Java HotSpot(TM) 64-Bit Server VM
Default Encoding: UTF-8
Language: en
Country: US
--></g></svg>