<?xml version="1.0" encoding="UTF-8"?>
<!-- Do not edit this file with editors other than draw.io -->
<!DOCTYPE svg PUBLIC "-//W3C//DTD SVG 1.1//EN" "http://www.w3.org/Graphics/SVG/1.1/DTD/svg11.dtd">
<svg xmlns="http://www.w3.org/2000/svg" xmlns:xlink="http://www.w3.org/1999/xlink" version="1.1" width="671px" height="1764px" viewBox="-0.5 -0.5 671 1764" content="&lt;mxfile host=&quot;app.diagrams.net&quot; modified=&quot;2024-03-15T12:36:50.867Z&quot; agent=&quot;Mozilla/5.0 (Windows NT 10.0; Win64; x64; rv:109.0) Gecko/20100101 Firefox/115.0&quot; etag=&quot;OY4ryqCbbkarVes0Mpbr&quot; version=&quot;24.0.7&quot; type=&quot;device&quot;&gt;&#xA;  &lt;diagram name=&quot;Seite-1&quot; id=&quot;rlr8n_0eQ3caNWGKs7MA&quot;&gt;&#xA;    &lt;mxGraphModel dx=&quot;1434&quot; dy=&quot;874&quot; grid=&quot;1&quot; gridSize=&quot;10&quot; guides=&quot;1&quot; tooltips=&quot;1&quot; connect=&quot;1&quot; arrows=&quot;1&quot; fold=&quot;1&quot; page=&quot;1&quot; pageScale=&quot;1&quot; pageWidth=&quot;827&quot; pageHeight=&quot;1169&quot; math=&quot;0&quot; shadow=&quot;0&quot;&gt;&#xA;      &lt;root&gt;&#xA;        &lt;mxCell id=&quot;0&quot; /&gt;&#xA;        &lt;mxCell id=&quot;1&quot; parent=&quot;0&quot; /&gt;&#xA;        &lt;mxCell id=&quot;oZwMS_wMN-MTAyazTBmT-3&quot; value=&quot;Export der Stationen für Migration zu moodle&quot; style=&quot;rounded=1;whiteSpace=wrap;html=1;&quot; parent=&quot;1&quot; vertex=&quot;1&quot;&gt;&#xA;          &lt;mxGeometry x=&quot;347&quot; y=&quot;186.5&quot; width=&quot;134&quot; height=&quot;67&quot; as=&quot;geometry&quot; /&gt;&#xA;        &lt;/mxCell&gt;&#xA;        &lt;mxCell id=&quot;oZwMS_wMN-MTAyazTBmT-4&quot; value=&quot;Die Migration der Kurse hat angefangen&quot; style=&quot;shape=hexagon;perimeter=hexagonPerimeter2;whiteSpace=wrap;html=1;fixedSize=1;comic=0;snapToPoint=1;size=10;&quot; parent=&quot;1&quot; vertex=&quot;1&quot;&gt;&#xA;          &lt;mxGeometry x=&quot;354&quot; y=&quot;60&quot; width=&quot;120&quot; height=&quot;60&quot; as=&quot;geometry&quot; /&gt;&#xA;        &lt;/mxCell&gt;&#xA;        &lt;mxCell id=&quot;oZwMS_wMN-MTAyazTBmT-6&quot; value=&quot;&quot; style=&quot;endArrow=classic;html=1;rounded=0;exitX=0.5;exitY=1;exitDx=0;exitDy=0;entryX=0.5;entryY=0;entryDx=0;entryDy=0;&quot; parent=&quot;1&quot; source=&quot;oZwMS_wMN-MTAyazTBmT-4&quot; target=&quot;oZwMS_wMN-MTAyazTBmT-3&quot; edge=&quot;1&quot;&gt;&#xA;          &lt;mxGeometry width=&quot;50&quot; height=&quot;50&quot; relative=&quot;1&quot; as=&quot;geometry&quot;&gt;&#xA;            &lt;mxPoint x=&quot;480&quot; y=&quot;350&quot; as=&quot;sourcePoint&quot; /&gt;&#xA;            &lt;mxPoint x=&quot;530&quot; y=&quot;300&quot; as=&quot;targetPoint&quot; /&gt;&#xA;          &lt;/mxGeometry&gt;&#xA;        &lt;/mxCell&gt;&#xA;        &lt;mxCell id=&quot;oZwMS_wMN-MTAyazTBmT-7&quot; value=&quot;&quot; style=&quot;group&quot; parent=&quot;1&quot; vertex=&quot;1&quot; connectable=&quot;0&quot;&gt;&#xA;          &lt;mxGeometry x=&quot;43&quot; y=&quot;182.5&quot; width=&quot;150&quot; height=&quot;75&quot; as=&quot;geometry&quot; /&gt;&#xA;        &lt;/mxCell&gt;&#xA;        &lt;mxCell id=&quot;oZwMS_wMN-MTAyazTBmT-8&quot; value=&quot;sudile-User mit Administratorrechten&quot; style=&quot;ellipse;whiteSpace=wrap;html=1;comic=0;&quot; parent=&quot;oZwMS_wMN-MTAyazTBmT-7&quot; vertex=&quot;1&quot;&gt;&#xA;          &lt;mxGeometry width=&quot;150&quot; height=&quot;75&quot; as=&quot;geometry&quot; /&gt;&#xA;        &lt;/mxCell&gt;&#xA;        &lt;mxCell id=&quot;oZwMS_wMN-MTAyazTBmT-9&quot; value=&quot;&quot; style=&quot;endArrow=none;html=1;rounded=0;entryX=0;entryY=0;entryDx=0;entryDy=0;exitX=0;exitY=1;exitDx=0;exitDy=0;&quot; parent=&quot;oZwMS_wMN-MTAyazTBmT-7&quot; source=&quot;oZwMS_wMN-MTAyazTBmT-8&quot; target=&quot;oZwMS_wMN-MTAyazTBmT-8&quot; edge=&quot;1&quot;&gt;&#xA;          &lt;mxGeometry width=&quot;50&quot; height=&quot;50&quot; relative=&quot;1&quot; as=&quot;geometry&quot;&gt;&#xA;            &lt;mxPoint x=&quot;24&quot; y=&quot;312.5&quot; as=&quot;sourcePoint&quot; /&gt;&#xA;            &lt;mxPoint x=&quot;84&quot; y=&quot;250&quot; as=&quot;targetPoint&quot; /&gt;&#xA;          &lt;/mxGeometry&gt;&#xA;        &lt;/mxCell&gt;&#xA;        &lt;mxCell id=&quot;oZwMS_wMN-MTAyazTBmT-11&quot; value=&quot;sudile-Stationsdaten&quot; style=&quot;rounded=0;whiteSpace=wrap;html=1;comic=0;&quot; parent=&quot;1&quot; vertex=&quot;1&quot;&gt;&#xA;          &lt;mxGeometry x=&quot;590&quot; y=&quot;190&quot; width=&quot;120&quot; height=&quot;60&quot; as=&quot;geometry&quot; /&gt;&#xA;        &lt;/mxCell&gt;&#xA;        &lt;mxCell id=&quot;oZwMS_wMN-MTAyazTBmT-12&quot; value=&quot;&quot; style=&quot;endArrow=none;html=1;rounded=0;entryX=0;entryY=0.5;entryDx=0;entryDy=0;exitX=1;exitY=0.5;exitDx=0;exitDy=0;&quot; parent=&quot;1&quot; source=&quot;oZwMS_wMN-MTAyazTBmT-3&quot; target=&quot;oZwMS_wMN-MTAyazTBmT-11&quot; edge=&quot;1&quot;&gt;&#xA;          &lt;mxGeometry width=&quot;50&quot; height=&quot;50&quot; relative=&quot;1&quot; as=&quot;geometry&quot;&gt;&#xA;            &lt;mxPoint x=&quot;510&quot; y=&quot;320&quot; as=&quot;sourcePoint&quot; /&gt;&#xA;            &lt;mxPoint x=&quot;560&quot; y=&quot;270&quot; as=&quot;targetPoint&quot; /&gt;&#xA;          &lt;/mxGeometry&gt;&#xA;        &lt;/mxCell&gt;&#xA;        &lt;mxCell id=&quot;oZwMS_wMN-MTAyazTBmT-13&quot; value=&quot;Daten erfolgreich exportiert&quot; style=&quot;shape=hexagon;perimeter=hexagonPerimeter2;whiteSpace=wrap;html=1;fixedSize=1;comic=0;snapToPoint=1;size=10;&quot; parent=&quot;1&quot; vertex=&quot;1&quot;&gt;&#xA;          &lt;mxGeometry x=&quot;354&quot; y=&quot;310&quot; width=&quot;120&quot; height=&quot;60&quot; as=&quot;geometry&quot; /&gt;&#xA;        &lt;/mxCell&gt;&#xA;        &lt;mxCell id=&quot;oZwMS_wMN-MTAyazTBmT-14&quot; value=&quot;&quot; style=&quot;endArrow=classic;html=1;rounded=0;exitX=0.5;exitY=1;exitDx=0;exitDy=0;entryX=0.5;entryY=0;entryDx=0;entryDy=0;&quot; parent=&quot;1&quot; source=&quot;oZwMS_wMN-MTAyazTBmT-3&quot; target=&quot;oZwMS_wMN-MTAyazTBmT-13&quot; edge=&quot;1&quot;&gt;&#xA;          &lt;mxGeometry width=&quot;50&quot; height=&quot;50&quot; relative=&quot;1&quot; as=&quot;geometry&quot;&gt;&#xA;            &lt;mxPoint x=&quot;480&quot; y=&quot;350&quot; as=&quot;sourcePoint&quot; /&gt;&#xA;            &lt;mxPoint x=&quot;530&quot; y=&quot;300&quot; as=&quot;targetPoint&quot; /&gt;&#xA;          &lt;/mxGeometry&gt;&#xA;        &lt;/mxCell&gt;&#xA;        &lt;mxCell id=&quot;oZwMS_wMN-MTAyazTBmT-15&quot; value=&quot;Entpacken des ZIP-Archives, was beim Export entstand&quot; style=&quot;rounded=1;whiteSpace=wrap;html=1;&quot; parent=&quot;1&quot; vertex=&quot;1&quot;&gt;&#xA;          &lt;mxGeometry x=&quot;354&quot; y=&quot;420&quot; width=&quot;120&quot; height=&quot;60&quot; as=&quot;geometry&quot; /&gt;&#xA;        &lt;/mxCell&gt;&#xA;        &lt;mxCell id=&quot;oZwMS_wMN-MTAyazTBmT-16&quot; value=&quot;&quot; style=&quot;endArrow=classic;html=1;rounded=0;exitX=0.5;exitY=1;exitDx=0;exitDy=0;entryX=0.5;entryY=0;entryDx=0;entryDy=0;&quot; parent=&quot;1&quot; source=&quot;oZwMS_wMN-MTAyazTBmT-13&quot; target=&quot;oZwMS_wMN-MTAyazTBmT-15&quot; edge=&quot;1&quot;&gt;&#xA;          &lt;mxGeometry width=&quot;50&quot; height=&quot;50&quot; relative=&quot;1&quot; as=&quot;geometry&quot;&gt;&#xA;            &lt;mxPoint x=&quot;460&quot; y=&quot;410&quot; as=&quot;sourcePoint&quot; /&gt;&#xA;            &lt;mxPoint x=&quot;510&quot; y=&quot;360&quot; as=&quot;targetPoint&quot; /&gt;&#xA;          &lt;/mxGeometry&gt;&#xA;        &lt;/mxCell&gt;&#xA;        &lt;mxCell id=&quot;oZwMS_wMN-MTAyazTBmT-17&quot; value=&quot;Exportiertes ZIP-Archiv&quot; style=&quot;rounded=0;whiteSpace=wrap;html=1;comic=0;&quot; parent=&quot;1&quot; vertex=&quot;1&quot;&gt;&#xA;          &lt;mxGeometry x=&quot;590&quot; y=&quot;420&quot; width=&quot;120&quot; height=&quot;60&quot; as=&quot;geometry&quot; /&gt;&#xA;        &lt;/mxCell&gt;&#xA;        &lt;mxCell id=&quot;oZwMS_wMN-MTAyazTBmT-18&quot; value=&quot;&quot; style=&quot;endArrow=none;html=1;rounded=0;entryX=0;entryY=0.5;entryDx=0;entryDy=0;exitX=1;exitY=0.5;exitDx=0;exitDy=0;&quot; parent=&quot;1&quot; source=&quot;oZwMS_wMN-MTAyazTBmT-15&quot; target=&quot;oZwMS_wMN-MTAyazTBmT-17&quot; edge=&quot;1&quot;&gt;&#xA;          &lt;mxGeometry width=&quot;50&quot; height=&quot;50&quot; relative=&quot;1&quot; as=&quot;geometry&quot;&gt;&#xA;            &lt;mxPoint x=&quot;465&quot; y=&quot;440&quot; as=&quot;sourcePoint&quot; /&gt;&#xA;            &lt;mxPoint x=&quot;560&quot; y=&quot;500&quot; as=&quot;targetPoint&quot; /&gt;&#xA;          &lt;/mxGeometry&gt;&#xA;        &lt;/mxCell&gt;&#xA;        &lt;mxCell id=&quot;oZwMS_wMN-MTAyazTBmT-22&quot; style=&quot;edgeStyle=orthogonalEdgeStyle;rounded=0;orthogonalLoop=1;jettySize=auto;html=1;entryX=0.5;entryY=0;entryDx=0;entryDy=0;&quot; parent=&quot;1&quot; source=&quot;oZwMS_wMN-MTAyazTBmT-19&quot; target=&quot;oZwMS_wMN-MTAyazTBmT-21&quot; edge=&quot;1&quot;&gt;&#xA;          &lt;mxGeometry relative=&quot;1&quot; as=&quot;geometry&quot; /&gt;&#xA;        &lt;/mxCell&gt;&#xA;        &lt;mxCell id=&quot;oZwMS_wMN-MTAyazTBmT-19&quot; value=&quot;Archiv erfolgreich entpackt&quot; style=&quot;shape=hexagon;perimeter=hexagonPerimeter2;whiteSpace=wrap;html=1;fixedSize=1;comic=0;snapToPoint=1;size=10;&quot; parent=&quot;1&quot; vertex=&quot;1&quot;&gt;&#xA;          &lt;mxGeometry x=&quot;354&quot; y=&quot;532&quot; width=&quot;120&quot; height=&quot;60&quot; as=&quot;geometry&quot; /&gt;&#xA;        &lt;/mxCell&gt;&#xA;        &lt;mxCell id=&quot;oZwMS_wMN-MTAyazTBmT-20&quot; value=&quot;&quot; style=&quot;endArrow=classic;html=1;rounded=0;exitX=0.5;exitY=1;exitDx=0;exitDy=0;entryX=0.5;entryY=0;entryDx=0;entryDy=0;&quot; parent=&quot;1&quot; source=&quot;oZwMS_wMN-MTAyazTBmT-15&quot; target=&quot;oZwMS_wMN-MTAyazTBmT-19&quot; edge=&quot;1&quot;&gt;&#xA;          &lt;mxGeometry width=&quot;50&quot; height=&quot;50&quot; relative=&quot;1&quot; as=&quot;geometry&quot;&gt;&#xA;            &lt;mxPoint x=&quot;520&quot; y=&quot;540&quot; as=&quot;sourcePoint&quot; /&gt;&#xA;            &lt;mxPoint x=&quot;570&quot; y=&quot;490&quot; as=&quot;targetPoint&quot; /&gt;&#xA;          &lt;/mxGeometry&gt;&#xA;        &lt;/mxCell&gt;&#xA;        &lt;mxCell id=&quot;oZwMS_wMN-MTAyazTBmT-30&quot; style=&quot;edgeStyle=orthogonalEdgeStyle;rounded=0;orthogonalLoop=1;jettySize=auto;html=1;entryX=0.5;entryY=0;entryDx=0;entryDy=0;&quot; parent=&quot;1&quot; source=&quot;oZwMS_wMN-MTAyazTBmT-21&quot; target=&quot;oZwMS_wMN-MTAyazTBmT-29&quot; edge=&quot;1&quot;&gt;&#xA;          &lt;mxGeometry relative=&quot;1&quot; as=&quot;geometry&quot; /&gt;&#xA;        &lt;/mxCell&gt;&#xA;        &lt;mxCell id=&quot;oZwMS_wMN-MTAyazTBmT-33&quot; style=&quot;edgeStyle=orthogonalEdgeStyle;rounded=0;orthogonalLoop=1;jettySize=auto;html=1;entryX=0.5;entryY=0;entryDx=0;entryDy=0;&quot; parent=&quot;1&quot; source=&quot;oZwMS_wMN-MTAyazTBmT-21&quot; target=&quot;oZwMS_wMN-MTAyazTBmT-32&quot; edge=&quot;1&quot;&gt;&#xA;          &lt;mxGeometry relative=&quot;1&quot; as=&quot;geometry&quot; /&gt;&#xA;        &lt;/mxCell&gt;&#xA;        &lt;mxCell id=&quot;oZwMS_wMN-MTAyazTBmT-21&quot; value=&quot;Umwandeln der Ordner-Struktur dank der &amp;lt;i&amp;gt;&amp;lt;b&amp;gt;transform.py&amp;lt;/b&amp;gt;&amp;lt;/i&amp;gt;&quot; style=&quot;rounded=1;whiteSpace=wrap;html=1;&quot; parent=&quot;1&quot; vertex=&quot;1&quot;&gt;&#xA;          &lt;mxGeometry x=&quot;354&quot; y=&quot;659&quot; width=&quot;120&quot; height=&quot;60&quot; as=&quot;geometry&quot; /&gt;&#xA;        &lt;/mxCell&gt;&#xA;        &lt;mxCell id=&quot;oZwMS_wMN-MTAyazTBmT-23&quot; value=&quot;Enpackte Ordner&quot; style=&quot;rounded=0;whiteSpace=wrap;html=1;comic=0;&quot; parent=&quot;1&quot; vertex=&quot;1&quot;&gt;&#xA;          &lt;mxGeometry x=&quot;590&quot; y=&quot;630&quot; width=&quot;120&quot; height=&quot;60&quot; as=&quot;geometry&quot; /&gt;&#xA;        &lt;/mxCell&gt;&#xA;        &lt;mxCell id=&quot;oZwMS_wMN-MTAyazTBmT-24&quot; value=&quot;&amp;lt;div&amp;gt;transform.py&amp;lt;/div&amp;gt;&amp;lt;div&amp;gt;transformer.xsl&amp;lt;br&amp;gt;&amp;lt;/div&amp;gt;&quot; style=&quot;rounded=0;whiteSpace=wrap;html=1;comic=0;&quot; parent=&quot;1&quot; vertex=&quot;1&quot;&gt;&#xA;          &lt;mxGeometry x=&quot;590&quot; y=&quot;700&quot; width=&quot;120&quot; height=&quot;60&quot; as=&quot;geometry&quot; /&gt;&#xA;        &lt;/mxCell&gt;&#xA;        &lt;mxCell id=&quot;oZwMS_wMN-MTAyazTBmT-25&quot; value=&quot;&quot; style=&quot;endArrow=none;html=1;rounded=0;exitX=1;exitY=0.5;exitDx=0;exitDy=0;entryX=0;entryY=0.5;entryDx=0;entryDy=0;&quot; parent=&quot;1&quot; source=&quot;oZwMS_wMN-MTAyazTBmT-21&quot; target=&quot;oZwMS_wMN-MTAyazTBmT-23&quot; edge=&quot;1&quot;&gt;&#xA;          &lt;mxGeometry width=&quot;50&quot; height=&quot;50&quot; relative=&quot;1&quot; as=&quot;geometry&quot;&gt;&#xA;            &lt;mxPoint x=&quot;510&quot; y=&quot;700&quot; as=&quot;sourcePoint&quot; /&gt;&#xA;            &lt;mxPoint x=&quot;560&quot; y=&quot;650&quot; as=&quot;targetPoint&quot; /&gt;&#xA;          &lt;/mxGeometry&gt;&#xA;        &lt;/mxCell&gt;&#xA;        &lt;mxCell id=&quot;oZwMS_wMN-MTAyazTBmT-26&quot; value=&quot;&quot; style=&quot;endArrow=none;html=1;rounded=0;exitX=1;exitY=0.5;exitDx=0;exitDy=0;entryX=0;entryY=0.5;entryDx=0;entryDy=0;&quot; parent=&quot;1&quot; source=&quot;oZwMS_wMN-MTAyazTBmT-21&quot; target=&quot;oZwMS_wMN-MTAyazTBmT-24&quot; edge=&quot;1&quot;&gt;&#xA;          &lt;mxGeometry width=&quot;50&quot; height=&quot;50&quot; relative=&quot;1&quot; as=&quot;geometry&quot;&gt;&#xA;            &lt;mxPoint x=&quot;484&quot; y=&quot;699&quot; as=&quot;sourcePoint&quot; /&gt;&#xA;            &lt;mxPoint x=&quot;600&quot; y=&quot;670&quot; as=&quot;targetPoint&quot; /&gt;&#xA;          &lt;/mxGeometry&gt;&#xA;        &lt;/mxCell&gt;&#xA;        &lt;mxCell id=&quot;oZwMS_wMN-MTAyazTBmT-45&quot; style=&quot;edgeStyle=orthogonalEdgeStyle;rounded=0;orthogonalLoop=1;jettySize=auto;html=1;entryX=0.5;entryY=0;entryDx=0;entryDy=0;&quot; parent=&quot;1&quot; source=&quot;oZwMS_wMN-MTAyazTBmT-28&quot; target=&quot;oZwMS_wMN-MTAyazTBmT-42&quot; edge=&quot;1&quot;&gt;&#xA;          &lt;mxGeometry relative=&quot;1&quot; as=&quot;geometry&quot; /&gt;&#xA;        &lt;/mxCell&gt;&#xA;        &lt;mxCell id=&quot;oZwMS_wMN-MTAyazTBmT-28&quot; value=&quot;Bilder hochladen&quot; style=&quot;rounded=1;whiteSpace=wrap;html=1;&quot; parent=&quot;1&quot; vertex=&quot;1&quot;&gt;&#xA;          &lt;mxGeometry x=&quot;354&quot; y=&quot;920&quot; width=&quot;120&quot; height=&quot;60&quot; as=&quot;geometry&quot; /&gt;&#xA;        &lt;/mxCell&gt;&#xA;        &lt;mxCell id=&quot;oZwMS_wMN-MTAyazTBmT-40&quot; style=&quot;edgeStyle=orthogonalEdgeStyle;rounded=0;orthogonalLoop=1;jettySize=auto;html=1;entryX=0;entryY=0.5;entryDx=0;entryDy=0;&quot; parent=&quot;1&quot; source=&quot;oZwMS_wMN-MTAyazTBmT-29&quot; target=&quot;oZwMS_wMN-MTAyazTBmT-38&quot; edge=&quot;1&quot;&gt;&#xA;          &lt;mxGeometry relative=&quot;1&quot; as=&quot;geometry&quot; /&gt;&#xA;        &lt;/mxCell&gt;&#xA;        &lt;mxCell id=&quot;oZwMS_wMN-MTAyazTBmT-29&quot; value=&quot;&amp;lt;b&amp;gt;&amp;lt;i&amp;gt;station.xml &amp;lt;/i&amp;gt;&amp;lt;/b&amp;gt;umgewandelt in &amp;lt;b&amp;gt;&amp;lt;i&amp;gt;station.html&amp;lt;/i&amp;gt;&amp;lt;/b&amp;gt;&quot; style=&quot;shape=hexagon;perimeter=hexagonPerimeter2;whiteSpace=wrap;html=1;fixedSize=1;comic=0;snapToPoint=1;size=10;&quot; parent=&quot;1&quot; vertex=&quot;1&quot;&gt;&#xA;          &lt;mxGeometry x=&quot;280&quot; y=&quot;770&quot; width=&quot;120&quot; height=&quot;60&quot; as=&quot;geometry&quot; /&gt;&#xA;        &lt;/mxCell&gt;&#xA;        &lt;mxCell id=&quot;oZwMS_wMN-MTAyazTBmT-39&quot; style=&quot;edgeStyle=orthogonalEdgeStyle;rounded=0;orthogonalLoop=1;jettySize=auto;html=1;entryX=1;entryY=0.5;entryDx=0;entryDy=0;&quot; parent=&quot;1&quot; source=&quot;oZwMS_wMN-MTAyazTBmT-32&quot; target=&quot;oZwMS_wMN-MTAyazTBmT-38&quot; edge=&quot;1&quot;&gt;&#xA;          &lt;mxGeometry relative=&quot;1&quot; as=&quot;geometry&quot; /&gt;&#xA;        &lt;/mxCell&gt;&#xA;        &lt;mxCell id=&quot;oZwMS_wMN-MTAyazTBmT-32&quot; value=&quot;&amp;lt;font style=&amp;quot;font-size: 11px;&amp;quot;&amp;gt;&amp;lt;b&amp;gt;Bilder wurden in einem gemeinsamen Ordner zusammengefasst&amp;lt;br&amp;gt;&amp;lt;/b&amp;gt;&amp;lt;/font&amp;gt;&quot; style=&quot;shape=hexagon;perimeter=hexagonPerimeter2;whiteSpace=wrap;html=1;fixedSize=1;comic=0;snapToPoint=1;size=10;&quot; parent=&quot;1&quot; vertex=&quot;1&quot;&gt;&#xA;          &lt;mxGeometry x=&quot;430&quot; y=&quot;770&quot; width=&quot;120&quot; height=&quot;60&quot; as=&quot;geometry&quot; /&gt;&#xA;        &lt;/mxCell&gt;&#xA;        &lt;mxCell id=&quot;oZwMS_wMN-MTAyazTBmT-35&quot; value=&quot;Zusammengefaster Bilder-Ordner&quot; style=&quot;rounded=0;whiteSpace=wrap;html=1;&quot; parent=&quot;1&quot; vertex=&quot;1&quot;&gt;&#xA;          &lt;mxGeometry x=&quot;570&quot; y=&quot;920&quot; width=&quot;120&quot; height=&quot;60&quot; as=&quot;geometry&quot; /&gt;&#xA;        &lt;/mxCell&gt;&#xA;        &lt;mxCell id=&quot;oZwMS_wMN-MTAyazTBmT-36&quot; value=&quot;&quot; style=&quot;endArrow=none;html=1;rounded=0;entryX=0;entryY=0.5;entryDx=0;entryDy=0;exitX=1;exitY=0.5;exitDx=0;exitDy=0;&quot; parent=&quot;1&quot; source=&quot;oZwMS_wMN-MTAyazTBmT-28&quot; target=&quot;oZwMS_wMN-MTAyazTBmT-35&quot; edge=&quot;1&quot;&gt;&#xA;          &lt;mxGeometry width=&quot;50&quot; height=&quot;50&quot; relative=&quot;1&quot; as=&quot;geometry&quot;&gt;&#xA;            &lt;mxPoint x=&quot;490&quot; y=&quot;1040&quot; as=&quot;sourcePoint&quot; /&gt;&#xA;            &lt;mxPoint x=&quot;540&quot; y=&quot;990&quot; as=&quot;targetPoint&quot; /&gt;&#xA;          &lt;/mxGeometry&gt;&#xA;        &lt;/mxCell&gt;&#xA;        &lt;mxCell id=&quot;oZwMS_wMN-MTAyazTBmT-41&quot; style=&quot;edgeStyle=orthogonalEdgeStyle;rounded=0;orthogonalLoop=1;jettySize=auto;html=1;entryX=0.5;entryY=0;entryDx=0;entryDy=0;&quot; parent=&quot;1&quot; source=&quot;oZwMS_wMN-MTAyazTBmT-38&quot; target=&quot;oZwMS_wMN-MTAyazTBmT-28&quot; edge=&quot;1&quot;&gt;&#xA;          &lt;mxGeometry relative=&quot;1&quot; as=&quot;geometry&quot; /&gt;&#xA;        &lt;/mxCell&gt;&#xA;        &lt;mxCell id=&quot;oZwMS_wMN-MTAyazTBmT-38&quot; value=&quot;⋀&quot; style=&quot;ellipse;whiteSpace=wrap;html=1;aspect=fixed;comic=0;resizable=1;overflow=visible;editable=1;movable=1;rotatable=1;deletable=1;connectable=1;resizeHeight=1;resizeWidth=1;&quot; parent=&quot;1&quot; vertex=&quot;1&quot;&gt;&#xA;          &lt;mxGeometry x=&quot;394&quot; y=&quot;840&quot; width=&quot;40&quot; height=&quot;40&quot; as=&quot;geometry&quot; /&gt;&#xA;        &lt;/mxCell&gt;&#xA;        &lt;mxCell id=&quot;oZwMS_wMN-MTAyazTBmT-47&quot; style=&quot;edgeStyle=orthogonalEdgeStyle;rounded=0;orthogonalLoop=1;jettySize=auto;html=1;entryX=0.5;entryY=0;entryDx=0;entryDy=0;&quot; parent=&quot;1&quot; source=&quot;oZwMS_wMN-MTAyazTBmT-42&quot; target=&quot;oZwMS_wMN-MTAyazTBmT-46&quot; edge=&quot;1&quot;&gt;&#xA;          &lt;mxGeometry relative=&quot;1&quot; as=&quot;geometry&quot; /&gt;&#xA;        &lt;/mxCell&gt;&#xA;        &lt;mxCell id=&quot;oZwMS_wMN-MTAyazTBmT-42&quot; value=&quot;Bilder erfolgreich hochgeladen, und Basispfad ermittelt&quot; style=&quot;shape=hexagon;perimeter=hexagonPerimeter2;whiteSpace=wrap;html=1;fixedSize=1;comic=0;snapToPoint=1;size=10;&quot; parent=&quot;1&quot; vertex=&quot;1&quot;&gt;&#xA;          &lt;mxGeometry x=&quot;354&quot; y=&quot;1030&quot; width=&quot;120&quot; height=&quot;60&quot; as=&quot;geometry&quot; /&gt;&#xA;        &lt;/mxCell&gt;&#xA;        &lt;mxCell id=&quot;oZwMS_wMN-MTAyazTBmT-49&quot; style=&quot;edgeStyle=orthogonalEdgeStyle;rounded=0;orthogonalLoop=1;jettySize=auto;html=1;entryX=0.5;entryY=0;entryDx=0;entryDy=0;&quot; parent=&quot;1&quot; source=&quot;oZwMS_wMN-MTAyazTBmT-46&quot; target=&quot;oZwMS_wMN-MTAyazTBmT-48&quot; edge=&quot;1&quot;&gt;&#xA;          &lt;mxGeometry relative=&quot;1&quot; as=&quot;geometry&quot; /&gt;&#xA;        &lt;/mxCell&gt;&#xA;        &lt;mxCell id=&quot;oZwMS_wMN-MTAyazTBmT-46&quot; value=&quot;In den umgewandelten HTML-Datein, den Basispfad der Bilder mit dem neuen ersetzen&quot; style=&quot;rounded=1;whiteSpace=wrap;html=1;&quot; parent=&quot;1&quot; vertex=&quot;1&quot;&gt;&#xA;          &lt;mxGeometry x=&quot;342&quot; y=&quot;1140&quot; width=&quot;144&quot; height=&quot;70&quot; as=&quot;geometry&quot; /&gt;&#xA;        &lt;/mxCell&gt;&#xA;        &lt;mxCell id=&quot;oZwMS_wMN-MTAyazTBmT-56&quot; style=&quot;edgeStyle=orthogonalEdgeStyle;rounded=0;orthogonalLoop=1;jettySize=auto;html=1;entryX=0.5;entryY=0;entryDx=0;entryDy=0;&quot; parent=&quot;1&quot; source=&quot;oZwMS_wMN-MTAyazTBmT-48&quot; target=&quot;oZwMS_wMN-MTAyazTBmT-55&quot; edge=&quot;1&quot;&gt;&#xA;          &lt;mxGeometry relative=&quot;1&quot; as=&quot;geometry&quot; /&gt;&#xA;        &lt;/mxCell&gt;&#xA;        &lt;mxCell id=&quot;oZwMS_wMN-MTAyazTBmT-58&quot; style=&quot;edgeStyle=orthogonalEdgeStyle;rounded=0;orthogonalLoop=1;jettySize=auto;html=1;entryX=0.5;entryY=0;entryDx=0;entryDy=0;&quot; parent=&quot;1&quot; source=&quot;oZwMS_wMN-MTAyazTBmT-48&quot; target=&quot;oZwMS_wMN-MTAyazTBmT-57&quot; edge=&quot;1&quot;&gt;&#xA;          &lt;mxGeometry relative=&quot;1&quot; as=&quot;geometry&quot; /&gt;&#xA;        &lt;/mxCell&gt;&#xA;        &lt;mxCell id=&quot;oZwMS_wMN-MTAyazTBmT-48&quot; value=&quot;Basispfade erfolgreich ersetzt&quot; style=&quot;shape=hexagon;perimeter=hexagonPerimeter2;whiteSpace=wrap;html=1;fixedSize=1;comic=0;snapToPoint=1;size=10;&quot; parent=&quot;1&quot; vertex=&quot;1&quot;&gt;&#xA;          &lt;mxGeometry x=&quot;354&quot; y=&quot;1260&quot; width=&quot;120&quot; height=&quot;60&quot; as=&quot;geometry&quot; /&gt;&#xA;        &lt;/mxCell&gt;&#xA;        &lt;mxCell id=&quot;oZwMS_wMN-MTAyazTBmT-50&quot; value=&quot;&amp;lt;div&amp;gt;station.xml&amp;lt;/div&amp;gt;&quot; style=&quot;rounded=0;whiteSpace=wrap;html=1;fontStyle=3&quot; parent=&quot;1&quot; vertex=&quot;1&quot;&gt;&#xA;          &lt;mxGeometry x=&quot;570&quot; y=&quot;1109&quot; width=&quot;120&quot; height=&quot;60&quot; as=&quot;geometry&quot; /&gt;&#xA;        &lt;/mxCell&gt;&#xA;        &lt;mxCell id=&quot;oZwMS_wMN-MTAyazTBmT-51&quot; value=&quot;&amp;lt;b&amp;gt;&amp;lt;i&amp;gt;replace_all.py&amp;lt;/i&amp;gt;&amp;lt;br&amp;gt;&amp;lt;/b&amp;gt;&quot; style=&quot;rounded=0;whiteSpace=wrap;html=1;&quot; parent=&quot;1&quot; vertex=&quot;1&quot;&gt;&#xA;          &lt;mxGeometry x=&quot;570&quot; y=&quot;1180&quot; width=&quot;120&quot; height=&quot;60&quot; as=&quot;geometry&quot; /&gt;&#xA;        &lt;/mxCell&gt;&#xA;        &lt;mxCell id=&quot;oZwMS_wMN-MTAyazTBmT-52&quot; value=&quot;&quot; style=&quot;endArrow=none;html=1;rounded=0;exitX=1;exitY=0.5;exitDx=0;exitDy=0;entryX=0;entryY=0.5;entryDx=0;entryDy=0;&quot; parent=&quot;1&quot; source=&quot;oZwMS_wMN-MTAyazTBmT-46&quot; target=&quot;oZwMS_wMN-MTAyazTBmT-50&quot; edge=&quot;1&quot;&gt;&#xA;          &lt;mxGeometry width=&quot;50&quot; height=&quot;50&quot; relative=&quot;1&quot; as=&quot;geometry&quot;&gt;&#xA;            &lt;mxPoint x=&quot;510&quot; y=&quot;1180&quot; as=&quot;sourcePoint&quot; /&gt;&#xA;            &lt;mxPoint x=&quot;560&quot; y=&quot;1130&quot; as=&quot;targetPoint&quot; /&gt;&#xA;          &lt;/mxGeometry&gt;&#xA;        &lt;/mxCell&gt;&#xA;        &lt;mxCell id=&quot;oZwMS_wMN-MTAyazTBmT-54&quot; value=&quot;&quot; style=&quot;endArrow=none;html=1;rounded=0;exitX=1;exitY=0.5;exitDx=0;exitDy=0;entryX=0;entryY=0.5;entryDx=0;entryDy=0;&quot; parent=&quot;1&quot; source=&quot;oZwMS_wMN-MTAyazTBmT-46&quot; target=&quot;oZwMS_wMN-MTAyazTBmT-51&quot; edge=&quot;1&quot;&gt;&#xA;          &lt;mxGeometry width=&quot;50&quot; height=&quot;50&quot; relative=&quot;1&quot; as=&quot;geometry&quot;&gt;&#xA;            &lt;mxPoint x=&quot;496&quot; y=&quot;1185&quot; as=&quot;sourcePoint&quot; /&gt;&#xA;            &lt;mxPoint x=&quot;580&quot; y=&quot;1149&quot; as=&quot;targetPoint&quot; /&gt;&#xA;          &lt;/mxGeometry&gt;&#xA;        &lt;/mxCell&gt;&#xA;        &lt;mxCell id=&quot;xFlrx1u-8fG7M8XJyhsx-4&quot; style=&quot;edgeStyle=orthogonalEdgeStyle;rounded=0;orthogonalLoop=1;jettySize=auto;html=1;&quot; edge=&quot;1&quot; parent=&quot;1&quot; source=&quot;oZwMS_wMN-MTAyazTBmT-55&quot; target=&quot;xFlrx1u-8fG7M8XJyhsx-3&quot;&gt;&#xA;          &lt;mxGeometry relative=&quot;1&quot; as=&quot;geometry&quot; /&gt;&#xA;        &lt;/mxCell&gt;&#xA;        &lt;mxCell id=&quot;oZwMS_wMN-MTAyazTBmT-55&quot; value=&quot;Hochladen der HTML-Datein, je Datei ein Abschnitt&quot; style=&quot;rounded=1;whiteSpace=wrap;html=1;&quot; parent=&quot;1&quot; vertex=&quot;1&quot;&gt;&#xA;          &lt;mxGeometry x=&quot;280&quot; y=&quot;1380&quot; width=&quot;120&quot; height=&quot;60&quot; as=&quot;geometry&quot; /&gt;&#xA;        &lt;/mxCell&gt;&#xA;        &lt;mxCell id=&quot;oZwMS_wMN-MTAyazTBmT-60&quot; style=&quot;edgeStyle=orthogonalEdgeStyle;rounded=0;orthogonalLoop=1;jettySize=auto;html=1;entryX=0.5;entryY=0;entryDx=0;entryDy=0;&quot; parent=&quot;1&quot; source=&quot;oZwMS_wMN-MTAyazTBmT-57&quot; target=&quot;oZwMS_wMN-MTAyazTBmT-59&quot; edge=&quot;1&quot;&gt;&#xA;          &lt;mxGeometry relative=&quot;1&quot; as=&quot;geometry&quot; /&gt;&#xA;        &lt;/mxCell&gt;&#xA;        &lt;mxCell id=&quot;oZwMS_wMN-MTAyazTBmT-57&quot; value=&quot;Konfigurieren des Kurses&quot; style=&quot;rounded=1;whiteSpace=wrap;html=1;&quot; parent=&quot;1&quot; vertex=&quot;1&quot;&gt;&#xA;          &lt;mxGeometry x=&quot;430&quot; y=&quot;1380&quot; width=&quot;120&quot; height=&quot;60&quot; as=&quot;geometry&quot; /&gt;&#xA;        &lt;/mxCell&gt;&#xA;        &lt;mxCell id=&quot;oZwMS_wMN-MTAyazTBmT-62&quot; style=&quot;edgeStyle=orthogonalEdgeStyle;rounded=0;orthogonalLoop=1;jettySize=auto;html=1;entryX=0.5;entryY=0;entryDx=0;entryDy=0;&quot; parent=&quot;1&quot; source=&quot;oZwMS_wMN-MTAyazTBmT-59&quot; target=&quot;oZwMS_wMN-MTAyazTBmT-61&quot; edge=&quot;1&quot;&gt;&#xA;          &lt;mxGeometry relative=&quot;1&quot; as=&quot;geometry&quot; /&gt;&#xA;        &lt;/mxCell&gt;&#xA;        &lt;mxCell id=&quot;oZwMS_wMN-MTAyazTBmT-59&quot; value=&quot;&amp;lt;div&amp;gt;Kurs konfiguriert und einem Dozent zugewiesen&amp;lt;/div&amp;gt;&quot; style=&quot;shape=hexagon;perimeter=hexagonPerimeter2;whiteSpace=wrap;html=1;fixedSize=1;comic=0;snapToPoint=1;size=10;&quot; parent=&quot;1&quot; vertex=&quot;1&quot;&gt;&#xA;          &lt;mxGeometry x=&quot;420&quot; y=&quot;1510&quot; width=&quot;140&quot; height=&quot;60&quot; as=&quot;geometry&quot; /&gt;&#xA;        &lt;/mxCell&gt;&#xA;        &lt;mxCell id=&quot;xFlrx1u-8fG7M8XJyhsx-6&quot; style=&quot;edgeStyle=orthogonalEdgeStyle;rounded=0;orthogonalLoop=1;jettySize=auto;html=1;entryX=0.5;entryY=0;entryDx=0;entryDy=0;&quot; edge=&quot;1&quot; parent=&quot;1&quot; source=&quot;oZwMS_wMN-MTAyazTBmT-61&quot; target=&quot;xFlrx1u-8fG7M8XJyhsx-5&quot;&gt;&#xA;          &lt;mxGeometry relative=&quot;1&quot; as=&quot;geometry&quot; /&gt;&#xA;        &lt;/mxCell&gt;&#xA;        &lt;mxCell id=&quot;oZwMS_wMN-MTAyazTBmT-61&quot; value=&quot;Protokollieren, wer welchen Kurs bekommt&quot; style=&quot;rounded=1;whiteSpace=wrap;html=1;&quot; parent=&quot;1&quot; vertex=&quot;1&quot;&gt;&#xA;          &lt;mxGeometry x=&quot;354&quot; y=&quot;1640&quot; width=&quot;120&quot; height=&quot;60&quot; as=&quot;geometry&quot; /&gt;&#xA;        &lt;/mxCell&gt;&#xA;        &lt;mxCell id=&quot;oZwMS_wMN-MTAyazTBmT-63&quot; value=&quot;&quot; style=&quot;group&quot; parent=&quot;1&quot; vertex=&quot;1&quot; connectable=&quot;0&quot;&gt;&#xA;          &lt;mxGeometry x=&quot;40&quot; y=&quot;410&quot; width=&quot;150&quot; height=&quot;75&quot; as=&quot;geometry&quot; /&gt;&#xA;        &lt;/mxCell&gt;&#xA;        &lt;mxCell id=&quot;oZwMS_wMN-MTAyazTBmT-64&quot; value=&quot;Der zuständige für die Migration&quot; style=&quot;ellipse;whiteSpace=wrap;html=1;comic=0;&quot; parent=&quot;oZwMS_wMN-MTAyazTBmT-63&quot; vertex=&quot;1&quot;&gt;&#xA;          &lt;mxGeometry width=&quot;150&quot; height=&quot;75&quot; as=&quot;geometry&quot; /&gt;&#xA;        &lt;/mxCell&gt;&#xA;        &lt;mxCell id=&quot;oZwMS_wMN-MTAyazTBmT-65&quot; value=&quot;&quot; style=&quot;endArrow=none;html=1;rounded=0;entryX=0;entryY=0;entryDx=0;entryDy=0;exitX=0;exitY=1;exitDx=0;exitDy=0;&quot; parent=&quot;oZwMS_wMN-MTAyazTBmT-63&quot; source=&quot;oZwMS_wMN-MTAyazTBmT-64&quot; target=&quot;oZwMS_wMN-MTAyazTBmT-64&quot; edge=&quot;1&quot;&gt;&#xA;          &lt;mxGeometry width=&quot;50&quot; height=&quot;50&quot; relative=&quot;1&quot; as=&quot;geometry&quot;&gt;&#xA;            &lt;mxPoint x=&quot;24&quot; y=&quot;312.5&quot; as=&quot;sourcePoint&quot; /&gt;&#xA;            &lt;mxPoint x=&quot;84&quot; y=&quot;250&quot; as=&quot;targetPoint&quot; /&gt;&#xA;          &lt;/mxGeometry&gt;&#xA;        &lt;/mxCell&gt;&#xA;        &lt;mxCell id=&quot;oZwMS_wMN-MTAyazTBmT-68&quot; style=&quot;rounded=0;orthogonalLoop=1;jettySize=auto;html=1;endArrow=none;endFill=0;&quot; parent=&quot;1&quot; source=&quot;oZwMS_wMN-MTAyazTBmT-66&quot; target=&quot;oZwMS_wMN-MTAyazTBmT-55&quot; edge=&quot;1&quot;&gt;&#xA;          &lt;mxGeometry relative=&quot;1&quot; as=&quot;geometry&quot; /&gt;&#xA;        &lt;/mxCell&gt;&#xA;        &lt;mxCell id=&quot;oZwMS_wMN-MTAyazTBmT-66&quot; value=&quot;&amp;lt;div&amp;gt;station.html&amp;lt;/div&amp;gt;&quot; style=&quot;rounded=0;whiteSpace=wrap;html=1;fontStyle=3&quot; parent=&quot;1&quot; vertex=&quot;1&quot;&gt;&#xA;          &lt;mxGeometry x=&quot;120&quot; y=&quot;1340&quot; width=&quot;120&quot; height=&quot;60&quot; as=&quot;geometry&quot; /&gt;&#xA;        &lt;/mxCell&gt;&#xA;        &lt;mxCell id=&quot;oZwMS_wMN-MTAyazTBmT-69&quot; value=&quot;&amp;lt;div&amp;gt;moodle-Kurs&amp;lt;/div&amp;gt;&quot; style=&quot;rounded=0;whiteSpace=wrap;html=1;fontStyle=3&quot; parent=&quot;1&quot; vertex=&quot;1&quot;&gt;&#xA;          &lt;mxGeometry x=&quot;120&quot; y=&quot;1410&quot; width=&quot;120&quot; height=&quot;60&quot; as=&quot;geometry&quot; /&gt;&#xA;        &lt;/mxCell&gt;&#xA;        &lt;mxCell id=&quot;oZwMS_wMN-MTAyazTBmT-70&quot; value=&quot;&quot; style=&quot;endArrow=none;html=1;rounded=0;entryX=0;entryY=0.5;entryDx=0;entryDy=0;exitX=1;exitY=0.5;exitDx=0;exitDy=0;&quot; parent=&quot;1&quot; source=&quot;oZwMS_wMN-MTAyazTBmT-69&quot; target=&quot;oZwMS_wMN-MTAyazTBmT-55&quot; edge=&quot;1&quot;&gt;&#xA;          &lt;mxGeometry width=&quot;50&quot; height=&quot;50&quot; relative=&quot;1&quot; as=&quot;geometry&quot;&gt;&#xA;            &lt;mxPoint x=&quot;220&quot; y=&quot;1540&quot; as=&quot;sourcePoint&quot; /&gt;&#xA;            &lt;mxPoint x=&quot;270&quot; y=&quot;1490&quot; as=&quot;targetPoint&quot; /&gt;&#xA;          &lt;/mxGeometry&gt;&#xA;        &lt;/mxCell&gt;&#xA;        &lt;mxCell id=&quot;xFlrx1u-8fG7M8XJyhsx-1&quot; value=&quot;⋀&quot; style=&quot;ellipse;whiteSpace=wrap;html=1;aspect=fixed;comic=0;resizable=1;overflow=visible;editable=1;movable=1;rotatable=1;deletable=1;connectable=1;resizeHeight=1;resizeWidth=1;&quot; vertex=&quot;1&quot; parent=&quot;1&quot;&gt;&#xA;          &lt;mxGeometry x=&quot;395&quot; y=&quot;725&quot; width=&quot;40&quot; height=&quot;40&quot; as=&quot;geometry&quot; /&gt;&#xA;        &lt;/mxCell&gt;&#xA;        &lt;mxCell id=&quot;xFlrx1u-8fG7M8XJyhsx-2&quot; value=&quot;⋀&quot; style=&quot;ellipse;whiteSpace=wrap;html=1;aspect=fixed;comic=0;resizable=1;overflow=visible;editable=1;movable=1;rotatable=1;deletable=1;connectable=1;resizeHeight=1;resizeWidth=1;&quot; vertex=&quot;1&quot; parent=&quot;1&quot;&gt;&#xA;          &lt;mxGeometry x=&quot;394&quot; y=&quot;1331&quot; width=&quot;40&quot; height=&quot;40&quot; as=&quot;geometry&quot; /&gt;&#xA;        &lt;/mxCell&gt;&#xA;        &lt;mxCell id=&quot;xFlrx1u-8fG7M8XJyhsx-3&quot; value=&quot;HTML-Datein erfolgreich hochgeladen&quot; style=&quot;shape=hexagon;perimeter=hexagonPerimeter2;whiteSpace=wrap;html=1;fixedSize=1;comic=0;snapToPoint=1;size=10;&quot; vertex=&quot;1&quot; parent=&quot;1&quot;&gt;&#xA;          &lt;mxGeometry x=&quot;280&quot; y=&quot;1510&quot; width=&quot;120&quot; height=&quot;60&quot; as=&quot;geometry&quot; /&gt;&#xA;        &lt;/mxCell&gt;&#xA;        &lt;mxCell id=&quot;xFlrx1u-8fG7M8XJyhsx-5&quot; value=&quot;Protokoliert&quot; style=&quot;shape=hexagon;perimeter=hexagonPerimeter2;whiteSpace=wrap;html=1;fixedSize=1;comic=0;snapToPoint=1;size=10;&quot; vertex=&quot;1&quot; parent=&quot;1&quot;&gt;&#xA;          &lt;mxGeometry x=&quot;354&quot; y=&quot;1763&quot; width=&quot;120&quot; height=&quot;60&quot; as=&quot;geometry&quot; /&gt;&#xA;        &lt;/mxCell&gt;&#xA;      &lt;/root&gt;&#xA;    &lt;/mxGraphModel&gt;&#xA;  &lt;/diagram&gt;&#xA;&lt;/mxfile&gt;&#xA;"><defs/><g><g><rect x="307" y="126.5" width="134" height="67" rx="10.05" ry="10.05" fill="rgb(255, 255, 255)" stroke="rgb(0, 0, 0)" pointer-events="all"/></g><g><g transform="translate(-0.5 -0.5)"><switch><foreignObject style="overflow: visible; text-align: left;" pointer-events="none" width="100%" height="100%" requiredFeatures="http://www.w3.org/TR/SVG11/feature#Extensibility"><div xmlns="http://www.w3.org/1999/xhtml" style="display: flex; align-items: unsafe center; justify-content: unsafe center; width: 132px; height: 1px; padding-top: 160px; margin-left: 308px;"><div style="box-sizing: border-box; font-size: 0px; text-align: center;" data-drawio-colors="color: rgb(0, 0, 0); "><div style="display: inline-block; font-size: 12px; font-family: Helvetica; color: rgb(0, 0, 0); line-height: 1.2; pointer-events: all; white-space: normal; overflow-wrap: normal;">Export der Stationen für Migration zu moodle</div></div></div></foreignObject><text x="374" y="164" fill="rgb(0, 0, 0)" font-family="Helvetica" font-size="12px" text-anchor="middle">Export der Stationen f...</text></switch></g></g><g><path d="M 324 0 L 424 0 L 434 30 L 424 60 L 324 60 L 314 30 Z" fill="rgb(255, 255, 255)" stroke="rgb(0, 0, 0)" stroke-miterlimit="10" pointer-events="all"/></g><g><g transform="translate(-0.5 -0.5)"><switch><foreignObject style="overflow: visible; text-align: left;" pointer-events="none" width="100%" height="100%" requiredFeatures="http://www.w3.org/TR/SVG11/feature#Extensibility"><div xmlns="http://www.w3.org/1999/xhtml" style="display: flex; align-items: unsafe center; justify-content: unsafe center; width: 118px; height: 1px; padding-top: 30px; margin-left: 315px;"><div style="box-sizing: border-box; font-size: 0px; text-align: center;" data-drawio-colors="color: rgb(0, 0, 0); "><div style="display: inline-block; font-size: 12px; font-family: Helvetica; color: rgb(0, 0, 0); line-height: 1.2; pointer-events: all; white-space: normal; overflow-wrap: normal;">Die Migration der Kurse hat angefangen</div></div></div></foreignObject><text x="374" y="34" fill="rgb(0, 0, 0)" font-family="Helvetica" font-size="12px" text-anchor="middle">Die Migration der Ku...</text></switch></g></g><g><path d="M 374 60 L 374 120.13" fill="none" stroke="rgb(0, 0, 0)" stroke-miterlimit="10" pointer-events="stroke"/><path d="M 374 125.38 L 370.5 118.38 L 374 120.13 L 377.5 118.38 Z" fill="rgb(0, 0, 0)" stroke="rgb(0, 0, 0)" stroke-miterlimit="10" pointer-events="all"/></g><g/><g><ellipse cx="78" cy="160" rx="75" ry="37.5" fill="rgb(255, 255, 255)" stroke="rgb(0, 0, 0)" pointer-events="all"/></g><g><g transform="translate(-0.5 -0.5)"><switch><foreignObject style="overflow: visible; text-align: left;" pointer-events="none" width="100%" height="100%" requiredFeatures="http://www.w3.org/TR/SVG11/feature#Extensibility"><div xmlns="http://www.w3.org/1999/xhtml" style="display: flex; align-items: unsafe center; justify-content: unsafe center; width: 148px; height: 1px; padding-top: 160px; margin-left: 4px;"><div style="box-sizing: border-box; font-size: 0px; text-align: center;" data-drawio-colors="color: rgb(0, 0, 0); "><div style="display: inline-block; font-size: 12px; font-family: Helvetica; color: rgb(0, 0, 0); line-height: 1.2; pointer-events: all; white-space: normal; overflow-wrap: normal;">sudile-User mit Administratorrechten</div></div></div></foreignObject><text x="78" y="164" fill="rgb(0, 0, 0)" font-family="Helvetica" font-size="12px" text-anchor="middle">sudile-User mit Administr...</text></switch></g></g><g><path d="M 24.61 186.34 L 24.61 133.66" fill="none" stroke="rgb(0, 0, 0)" stroke-miterlimit="10" pointer-events="stroke"/></g><g><rect x="550" y="130" width="120" height="60" fill="rgb(255, 255, 255)" stroke="rgb(0, 0, 0)" pointer-events="all"/></g><g><g transform="translate(-0.5 -0.5)"><switch><foreignObject style="overflow: visible; text-align: left;" pointer-events="none" width="100%" height="100%" requiredFeatures="http://www.w3.org/TR/SVG11/feature#Extensibility"><div xmlns="http://www.w3.org/1999/xhtml" style="display: flex; align-items: unsafe center; justify-content: unsafe center; width: 118px; height: 1px; padding-top: 160px; margin-left: 551px;"><div style="box-sizing: border-box; font-size: 0px; text-align: center;" data-drawio-colors="color: rgb(0, 0, 0); "><div style="display: inline-block; font-size: 12px; font-family: Helvetica; color: rgb(0, 0, 0); line-height: 1.2; pointer-events: all; white-space: normal; overflow-wrap: normal;">sudile-Stationsdaten</div></div></div></foreignObject><text x="610" y="164" fill="rgb(0, 0, 0)" font-family="Helvetica" font-size="12px" text-anchor="middle">sudile-Stationsdaten</text></switch></g></g><g><path d="M 441 160 L 550 160" fill="none" stroke="rgb(0, 0, 0)" stroke-miterlimit="10" pointer-events="stroke"/></g><g><path d="M 324 250 L 424 250 L 434 280 L 424 310 L 324 310 L 314 280 Z" fill="rgb(255, 255, 255)" stroke="rgb(0, 0, 0)" stroke-miterlimit="10" pointer-events="all"/></g><g><g transform="translate(-0.5 -0.5)"><switch><foreignObject style="overflow: visible; text-align: left;" pointer-events="none" width="100%" height="100%" requiredFeatures="http://www.w3.org/TR/SVG11/feature#Extensibility"><div xmlns="http://www.w3.org/1999/xhtml" style="display: flex; align-items: unsafe center; justify-content: unsafe center; width: 118px; height: 1px; padding-top: 280px; margin-left: 315px;"><div style="box-sizing: border-box; font-size: 0px; text-align: center;" data-drawio-colors="color: rgb(0, 0, 0); "><div style="display: inline-block; font-size: 12px; font-family: Helvetica; color: rgb(0, 0, 0); line-height: 1.2; pointer-events: all; white-space: normal; overflow-wrap: normal;">Daten erfolgreich exportiert</div></div></div></foreignObject><text x="374" y="284" fill="rgb(0, 0, 0)" font-family="Helvetica" font-size="12px" text-anchor="middle">Daten erfolgreich ex...</text></switch></g></g><g><path d="M 374 193.5 L 374 243.63" fill="none" stroke="rgb(0, 0, 0)" stroke-miterlimit="10" pointer-events="stroke"/><path d="M 374 248.88 L 370.5 241.88 L 374 243.63 L 377.5 241.88 Z" fill="rgb(0, 0, 0)" stroke="rgb(0, 0, 0)" stroke-miterlimit="10" pointer-events="all"/></g><g><rect x="314" y="360" width="120" height="60" rx="9" ry="9" fill="rgb(255, 255, 255)" stroke="rgb(0, 0, 0)" pointer-events="all"/></g><g><g transform="translate(-0.5 -0.5)"><switch><foreignObject style="overflow: visible; text-align: left;" pointer-events="none" width="100%" height="100%" requiredFeatures="http://www.w3.org/TR/SVG11/feature#Extensibility"><div xmlns="http://www.w3.org/1999/xhtml" style="display: flex; align-items: unsafe center; justify-content: unsafe center; width: 118px; height: 1px; padding-top: 390px; margin-left: 315px;"><div style="box-sizing: border-box; font-size: 0px; text-align: center;" data-drawio-colors="color: rgb(0, 0, 0); "><div style="display: inline-block; font-size: 12px; font-family: Helvetica; color: rgb(0, 0, 0); line-height: 1.2; pointer-events: all; white-space: normal; overflow-wrap: normal;">Entpacken des ZIP-Archives, was beim Export entstand</div></div></div></foreignObject><text x="374" y="394" fill="rgb(0, 0, 0)" font-family="Helvetica" font-size="12px" text-anchor="middle">Entpacken des ZIP-Ar...</text></switch></g></g><g><path d="M 374 310 L 374 353.63" fill="none" stroke="rgb(0, 0, 0)" stroke-miterlimit="10" pointer-events="stroke"/><path d="M 374 358.88 L 370.5 351.88 L 374 353.63 L 377.5 351.88 Z" fill="rgb(0, 0, 0)" stroke="rgb(0, 0, 0)" stroke-miterlimit="10" pointer-events="all"/></g><g><rect x="550" y="360" width="120" height="60" fill="rgb(255, 255, 255)" stroke="rgb(0, 0, 0)" pointer-events="all"/></g><g><g transform="translate(-0.5 -0.5)"><switch><foreignObject style="overflow: visible; text-align: left;" pointer-events="none" width="100%" height="100%" requiredFeatures="http://www.w3.org/TR/SVG11/feature#Extensibility"><div xmlns="http://www.w3.org/1999/xhtml" style="display: flex; align-items: unsafe center; justify-content: unsafe center; width: 118px; height: 1px; padding-top: 390px; margin-left: 551px;"><div style="box-sizing: border-box; font-size: 0px; text-align: center;" data-drawio-colors="color: rgb(0, 0, 0); "><div style="display: inline-block; font-size: 12px; font-family: Helvetica; color: rgb(0, 0, 0); line-height: 1.2; pointer-events: all; white-space: normal; overflow-wrap: normal;">Exportiertes ZIP-Archiv</div></div></div></foreignObject><text x="610" y="394" fill="rgb(0, 0, 0)" font-family="Helvetica" font-size="12px" text-anchor="middle">Exportiertes ZIP-Arc...</text></switch></g></g><g><path d="M 434 390 L 550 390" fill="none" stroke="rgb(0, 0, 0)" stroke-miterlimit="10" pointer-events="stroke"/></g><g><path d="M 374 532 L 374 592.63" fill="none" stroke="rgb(0, 0, 0)" stroke-miterlimit="10" pointer-events="stroke"/><path d="M 374 597.88 L 370.5 590.88 L 374 592.63 L 377.5 590.88 Z" fill="rgb(0, 0, 0)" stroke="rgb(0, 0, 0)" stroke-miterlimit="10" pointer-events="all"/></g><g><path d="M 324 472 L 424 472 L 434 502 L 424 532 L 324 532 L 314 502 Z" fill="rgb(255, 255, 255)" stroke="rgb(0, 0, 0)" stroke-miterlimit="10" pointer-events="all"/></g><g><g transform="translate(-0.5 -0.5)"><switch><foreignObject style="overflow: visible; text-align: left;" pointer-events="none" width="100%" height="100%" requiredFeatures="http://www.w3.org/TR/SVG11/feature#Extensibility"><div xmlns="http://www.w3.org/1999/xhtml" style="display: flex; align-items: unsafe center; justify-content: unsafe center; width: 118px; height: 1px; padding-top: 502px; margin-left: 315px;"><div style="box-sizing: border-box; font-size: 0px; text-align: center;" data-drawio-colors="color: rgb(0, 0, 0); "><div style="display: inline-block; font-size: 12px; font-family: Helvetica; color: rgb(0, 0, 0); line-height: 1.2; pointer-events: all; white-space: normal; overflow-wrap: normal;">Archiv erfolgreich entpackt</div></div></div></foreignObject><text x="374" y="506" fill="rgb(0, 0, 0)" font-family="Helvetica" font-size="12px" text-anchor="middle">Archiv erfolgreich e...</text></switch></g></g><g><path d="M 374 420 L 374 465.63" fill="none" stroke="rgb(0, 0, 0)" stroke-miterlimit="10" pointer-events="stroke"/><path d="M 374 470.88 L 370.5 463.88 L 374 465.63 L 377.5 463.88 Z" fill="rgb(0, 0, 0)" stroke="rgb(0, 0, 0)" stroke-miterlimit="10" pointer-events="all"/></g><g><path d="M 374 659 L 374 684.5 L 300 684.5 L 300 703.63" fill="none" stroke="rgb(0, 0, 0)" stroke-miterlimit="10" pointer-events="stroke"/><path d="M 300 708.88 L 296.5 701.88 L 300 703.63 L 303.5 701.88 Z" fill="rgb(0, 0, 0)" stroke="rgb(0, 0, 0)" stroke-miterlimit="10" pointer-events="all"/></g><g><path d="M 374 659 L 374 684.5 L 450 684.5 L 450 703.63" fill="none" stroke="rgb(0, 0, 0)" stroke-miterlimit="10" pointer-events="stroke"/><path d="M 450 708.88 L 446.5 701.88 L 450 703.63 L 453.5 701.88 Z" fill="rgb(0, 0, 0)" stroke="rgb(0, 0, 0)" stroke-miterlimit="10" pointer-events="all"/></g><g><rect x="314" y="599" width="120" height="60" rx="9" ry="9" fill="rgb(255, 255, 255)" stroke="rgb(0, 0, 0)" pointer-events="all"/></g><g><g transform="translate(-0.5 -0.5)"><switch><foreignObject style="overflow: visible; text-align: left;" pointer-events="none" width="100%" height="100%" requiredFeatures="http://www.w3.org/TR/SVG11/feature#Extensibility"><div xmlns="http://www.w3.org/1999/xhtml" style="display: flex; align-items: unsafe center; justify-content: unsafe center; width: 118px; height: 1px; padding-top: 629px; margin-left: 315px;"><div style="box-sizing: border-box; font-size: 0px; text-align: center;" data-drawio-colors="color: rgb(0, 0, 0); "><div style="display: inline-block; font-size: 12px; font-family: Helvetica; color: rgb(0, 0, 0); line-height: 1.2; pointer-events: all; white-space: normal; overflow-wrap: normal;">Umwandeln der Ordner-Struktur dank der <i><b>transform.py</b></i></div></div></div></foreignObject><text x="374" y="633" fill="rgb(0, 0, 0)" font-family="Helvetica" font-size="12px" text-anchor="middle">Umwandeln der Ordner...</text></switch></g></g><g><rect x="550" y="570" width="120" height="60" fill="rgb(255, 255, 255)" stroke="rgb(0, 0, 0)" pointer-events="all"/></g><g><g transform="translate(-0.5 -0.5)"><switch><foreignObject style="overflow: visible; text-align: left;" pointer-events="none" width="100%" height="100%" requiredFeatures="http://www.w3.org/TR/SVG11/feature#Extensibility"><div xmlns="http://www.w3.org/1999/xhtml" style="display: flex; align-items: unsafe center; justify-content: unsafe center; width: 118px; height: 1px; padding-top: 600px; margin-left: 551px;"><div style="box-sizing: border-box; font-size: 0px; text-align: center;" data-drawio-colors="color: rgb(0, 0, 0); "><div style="display: inline-block; font-size: 12px; font-family: Helvetica; color: rgb(0, 0, 0); line-height: 1.2; pointer-events: all; white-space: normal; overflow-wrap: normal;">Enpackte Ordner</div></div></div></foreignObject><text x="610" y="604" fill="rgb(0, 0, 0)" font-family="Helvetica" font-size="12px" text-anchor="middle">Enpackte Ordner</text></switch></g></g><g><rect x="550" y="640" width="120" height="60" fill="rgb(255, 255, 255)" stroke="rgb(0, 0, 0)" pointer-events="all"/></g><g><g transform="translate(-0.5 -0.5)"><switch><foreignObject style="overflow: visible; text-align: left;" pointer-events="none" width="100%" height="100%" requiredFeatures="http://www.w3.org/TR/SVG11/feature#Extensibility"><div xmlns="http://www.w3.org/1999/xhtml" style="display: flex; align-items: unsafe center; justify-content: unsafe center; width: 118px; height: 1px; padding-top: 670px; margin-left: 551px;"><div style="box-sizing: border-box; font-size: 0px; text-align: center;" data-drawio-colors="color: rgb(0, 0, 0); "><div style="display: inline-block; font-size: 12px; font-family: Helvetica; color: rgb(0, 0, 0); line-height: 1.2; pointer-events: all; white-space: normal; overflow-wrap: normal;"><div>transform.py</div><div>transformer.xsl<br /></div></div></div></div></foreignObject><text x="610" y="674" fill="rgb(0, 0, 0)" font-family="Helvetica" font-size="12px" text-anchor="middle">transform.py...</text></switch></g></g><g><path d="M 434 629 L 550 600" fill="none" stroke="rgb(0, 0, 0)" stroke-miterlimit="10" pointer-events="stroke"/></g><g><path d="M 434 629 L 550 670" fill="none" stroke="rgb(0, 0, 0)" stroke-miterlimit="10" pointer-events="stroke"/></g><g><path d="M 374 920 L 374 963.63" fill="none" stroke="rgb(0, 0, 0)" stroke-miterlimit="10" pointer-events="stroke"/><path d="M 374 968.88 L 370.5 961.88 L 374 963.63 L 377.5 961.88 Z" fill="rgb(0, 0, 0)" stroke="rgb(0, 0, 0)" stroke-miterlimit="10" pointer-events="all"/></g><g><rect x="314" y="860" width="120" height="60" rx="9" ry="9" fill="rgb(255, 255, 255)" stroke="rgb(0, 0, 0)" pointer-events="all"/></g><g><g transform="translate(-0.5 -0.5)"><switch><foreignObject style="overflow: visible; text-align: left;" pointer-events="none" width="100%" height="100%" requiredFeatures="http://www.w3.org/TR/SVG11/feature#Extensibility"><div xmlns="http://www.w3.org/1999/xhtml" style="display: flex; align-items: unsafe center; justify-content: unsafe center; width: 118px; height: 1px; padding-top: 890px; margin-left: 315px;"><div style="box-sizing: border-box; font-size: 0px; text-align: center;" data-drawio-colors="color: rgb(0, 0, 0); "><div style="display: inline-block; font-size: 12px; font-family: Helvetica; color: rgb(0, 0, 0); line-height: 1.2; pointer-events: all; white-space: normal; overflow-wrap: normal;">Bilder hochladen</div></div></div></foreignObject><text x="374" y="894" fill="rgb(0, 0, 0)" font-family="Helvetica" font-size="12px" text-anchor="middle">Bilder hochladen</text></switch></g></g><g><path d="M 300 770 L 300 800 L 347.63 800" fill="none" stroke="rgb(0, 0, 0)" stroke-miterlimit="10" pointer-events="stroke"/><path d="M 352.88 800 L 345.88 803.5 L 347.63 800 L 345.88 796.5 Z" fill="rgb(0, 0, 0)" stroke="rgb(0, 0, 0)" stroke-miterlimit="10" pointer-events="all"/></g><g><path d="M 250 710 L 350 710 L 360 740 L 350 770 L 250 770 L 240 740 Z" fill="rgb(255, 255, 255)" stroke="rgb(0, 0, 0)" stroke-miterlimit="10" pointer-events="all"/></g><g><g transform="translate(-0.5 -0.5)"><switch><foreignObject style="overflow: visible; text-align: left;" pointer-events="none" width="100%" height="100%" requiredFeatures="http://www.w3.org/TR/SVG11/feature#Extensibility"><div xmlns="http://www.w3.org/1999/xhtml" style="display: flex; align-items: unsafe center; justify-content: unsafe center; width: 118px; height: 1px; padding-top: 740px; margin-left: 241px;"><div style="box-sizing: border-box; font-size: 0px; text-align: center;" data-drawio-colors="color: rgb(0, 0, 0); "><div style="display: inline-block; font-size: 12px; font-family: Helvetica; color: rgb(0, 0, 0); line-height: 1.2; pointer-events: all; white-space: normal; overflow-wrap: normal;"><b><i>station.xml </i></b>umgewandelt in <b><i>station.html</i></b></div></div></div></foreignObject><text x="300" y="744" fill="rgb(0, 0, 0)" font-family="Helvetica" font-size="12px" text-anchor="middle">station.xml umgewand...</text></switch></g></g><g><path d="M 450 770 L 450 800 L 400.37 800" fill="none" stroke="rgb(0, 0, 0)" stroke-miterlimit="10" pointer-events="stroke"/><path d="M 395.12 800 L 402.12 796.5 L 400.37 800 L 402.12 803.5 Z" fill="rgb(0, 0, 0)" stroke="rgb(0, 0, 0)" stroke-miterlimit="10" pointer-events="all"/></g><g><path d="M 400 710 L 500 710 L 510 740 L 500 770 L 400 770 L 390 740 Z" fill="rgb(255, 255, 255)" stroke="rgb(0, 0, 0)" stroke-miterlimit="10" pointer-events="all"/></g><g><g transform="translate(-0.5 -0.5)"><switch><foreignObject style="overflow: visible; text-align: left;" pointer-events="none" width="100%" height="100%" requiredFeatures="http://www.w3.org/TR/SVG11/feature#Extensibility"><div xmlns="http://www.w3.org/1999/xhtml" style="display: flex; align-items: unsafe center; justify-content: unsafe center; width: 118px; height: 1px; padding-top: 740px; margin-left: 391px;"><div style="box-sizing: border-box; font-size: 0px; text-align: center;" data-drawio-colors="color: rgb(0, 0, 0); "><div style="display: inline-block; font-size: 12px; font-family: Helvetica; color: rgb(0, 0, 0); line-height: 1.2; pointer-events: all; white-space: normal; overflow-wrap: normal;"><font style="font-size: 11px;"><b>Bilder wurden in einem gemeinsamen Ordner zusammengefasst<br /></b></font></div></div></div></foreignObject><text x="450" y="744" fill="rgb(0, 0, 0)" font-family="Helvetica" font-size="12px" text-anchor="middle">Bilder wurden in ein...</text></switch></g></g><g><rect x="530" y="860" width="120" height="60" fill="rgb(255, 255, 255)" stroke="rgb(0, 0, 0)" pointer-events="all"/></g><g><g transform="translate(-0.5 -0.5)"><switch><foreignObject style="overflow: visible; text-align: left;" pointer-events="none" width="100%" height="100%" requiredFeatures="http://www.w3.org/TR/SVG11/feature#Extensibility"><div xmlns="http://www.w3.org/1999/xhtml" style="display: flex; align-items: unsafe center; justify-content: unsafe center; width: 118px; height: 1px; padding-top: 890px; margin-left: 531px;"><div style="box-sizing: border-box; font-size: 0px; text-align: center;" data-drawio-colors="color: rgb(0, 0, 0); "><div style="display: inline-block; font-size: 12px; font-family: Helvetica; color: rgb(0, 0, 0); line-height: 1.2; pointer-events: all; white-space: normal; overflow-wrap: normal;">Zusammengefaster Bilder-Ordner</div></div></div></foreignObject><text x="590" y="894" fill="rgb(0, 0, 0)" font-family="Helvetica" font-size="12px" text-anchor="middle">Zusammengefaster Bil...</text></switch></g></g><g><path d="M 434 890 L 530 890" fill="none" stroke="rgb(0, 0, 0)" stroke-miterlimit="10" pointer-events="stroke"/></g><g><path d="M 374 820 L 374 853.63" fill="none" stroke="rgb(0, 0, 0)" stroke-miterlimit="10" pointer-events="stroke"/><path d="M 374 858.88 L 370.5 851.88 L 374 853.63 L 377.5 851.88 Z" fill="rgb(0, 0, 0)" stroke="rgb(0, 0, 0)" stroke-miterlimit="10" pointer-events="all"/></g><g><ellipse cx="374" cy="800" rx="20" ry="20" fill="rgb(255, 255, 255)" stroke="rgb(0, 0, 0)" pointer-events="all"/></g><g><g transform="translate(-0.5 -0.5)"><switch><foreignObject style="overflow: visible; text-align: left;" pointer-events="none" width="100%" height="100%" requiredFeatures="http://www.w3.org/TR/SVG11/feature#Extensibility"><div xmlns="http://www.w3.org/1999/xhtml" style="display: flex; align-items: unsafe center; justify-content: unsafe center; width: 38px; height: 1px; padding-top: 800px; margin-left: 355px;"><div style="box-sizing: border-box; font-size: 0px; text-align: center;" data-drawio-colors="color: rgb(0, 0, 0); "><div style="display: inline-block; font-size: 12px; font-family: Helvetica; color: rgb(0, 0, 0); line-height: 1.2; pointer-events: all; white-space: normal; overflow-wrap: normal;">⋀</div></div></div></foreignObject><text x="374" y="804" fill="rgb(0, 0, 0)" font-family="Helvetica" font-size="12px" text-anchor="middle">⋀</text></switch></g></g><g><path d="M 374 1030 L 374 1073.63" fill="none" stroke="rgb(0, 0, 0)" stroke-miterlimit="10" pointer-events="stroke"/><path d="M 374 1078.88 L 370.5 1071.88 L 374 1073.63 L 377.5 1071.88 Z" fill="rgb(0, 0, 0)" stroke="rgb(0, 0, 0)" stroke-miterlimit="10" pointer-events="all"/></g><g><path d="M 324 970 L 424 970 L 434 1000 L 424 1030 L 324 1030 L 314 1000 Z" fill="rgb(255, 255, 255)" stroke="rgb(0, 0, 0)" stroke-miterlimit="10" pointer-events="all"/></g><g><g transform="translate(-0.5 -0.5)"><switch><foreignObject style="overflow: visible; text-align: left;" pointer-events="none" width="100%" height="100%" requiredFeatures="http://www.w3.org/TR/SVG11/feature#Extensibility"><div xmlns="http://www.w3.org/1999/xhtml" style="display: flex; align-items: unsafe center; justify-content: unsafe center; width: 118px; height: 1px; padding-top: 1000px; margin-left: 315px;"><div style="box-sizing: border-box; font-size: 0px; text-align: center;" data-drawio-colors="color: rgb(0, 0, 0); "><div style="display: inline-block; font-size: 12px; font-family: Helvetica; color: rgb(0, 0, 0); line-height: 1.2; pointer-events: all; white-space: normal; overflow-wrap: normal;">Bilder erfolgreich hochgeladen, und Basispfad ermittelt</div></div></div></foreignObject><text x="374" y="1004" fill="rgb(0, 0, 0)" font-family="Helvetica" font-size="12px" text-anchor="middle">Bilder erfolgreich h...</text></switch></g></g><g><path d="M 374 1150 L 374 1193.63" fill="none" stroke="rgb(0, 0, 0)" stroke-miterlimit="10" pointer-events="stroke"/><path d="M 374 1198.88 L 370.5 1191.88 L 374 1193.63 L 377.5 1191.88 Z" fill="rgb(0, 0, 0)" stroke="rgb(0, 0, 0)" stroke-miterlimit="10" pointer-events="all"/></g><g><rect x="302" y="1080" width="144" height="70" rx="10.5" ry="10.5" fill="rgb(255, 255, 255)" stroke="rgb(0, 0, 0)" pointer-events="all"/></g><g><g transform="translate(-0.5 -0.5)"><switch><foreignObject style="overflow: visible; text-align: left;" pointer-events="none" width="100%" height="100%" requiredFeatures="http://www.w3.org/TR/SVG11/feature#Extensibility"><div xmlns="http://www.w3.org/1999/xhtml" style="display: flex; align-items: unsafe center; justify-content: unsafe center; width: 142px; height: 1px; padding-top: 1115px; margin-left: 303px;"><div style="box-sizing: border-box; font-size: 0px; text-align: center;" data-drawio-colors="color: rgb(0, 0, 0); "><div style="display: inline-block; font-size: 12px; font-family: Helvetica; color: rgb(0, 0, 0); line-height: 1.2; pointer-events: all; white-space: normal; overflow-wrap: normal;">In den umgewandelten HTML-Datein, den Basispfad der Bilder mit dem neuen ersetzen</div></div></div></foreignObject><text x="374" y="1119" fill="rgb(0, 0, 0)" font-family="Helvetica" font-size="12px" text-anchor="middle">In den umgewandelten HTM...</text></switch></g></g><g><path d="M 374 1260 L 374 1290 L 300 1290 L 300 1313.63" fill="none" stroke="rgb(0, 0, 0)" stroke-miterlimit="10" pointer-events="stroke"/><path d="M 300 1318.88 L 296.5 1311.88 L 300 1313.63 L 303.5 1311.88 Z" fill="rgb(0, 0, 0)" stroke="rgb(0, 0, 0)" stroke-miterlimit="10" pointer-events="all"/></g><g><path d="M 374 1260 L 374 1290 L 450 1290 L 450 1313.63" fill="none" stroke="rgb(0, 0, 0)" stroke-miterlimit="10" pointer-events="stroke"/><path d="M 450 1318.88 L 446.5 1311.88 L 450 1313.63 L 453.5 1311.88 Z" fill="rgb(0, 0, 0)" stroke="rgb(0, 0, 0)" stroke-miterlimit="10" pointer-events="all"/></g><g><path d="M 324 1200 L 424 1200 L 434 1230 L 424 1260 L 324 1260 L 314 1230 Z" fill="rgb(255, 255, 255)" stroke="rgb(0, 0, 0)" stroke-miterlimit="10" pointer-events="all"/></g><g><g transform="translate(-0.5 -0.5)"><switch><foreignObject style="overflow: visible; text-align: left;" pointer-events="none" width="100%" height="100%" requiredFeatures="http://www.w3.org/TR/SVG11/feature#Extensibility"><div xmlns="http://www.w3.org/1999/xhtml" style="display: flex; align-items: unsafe center; justify-content: unsafe center; width: 118px; height: 1px; padding-top: 1230px; margin-left: 315px;"><div style="box-sizing: border-box; font-size: 0px; text-align: center;" data-drawio-colors="color: rgb(0, 0, 0); "><div style="display: inline-block; font-size: 12px; font-family: Helvetica; color: rgb(0, 0, 0); line-height: 1.2; pointer-events: all; white-space: normal; overflow-wrap: normal;">Basispfade erfolgreich ersetzt</div></div></div></foreignObject><text x="374" y="1234" fill="rgb(0, 0, 0)" font-family="Helvetica" font-size="12px" text-anchor="middle">Basispfade erfolgrei...</text></switch></g></g><g><rect x="530" y="1049" width="120" height="60" fill="rgb(255, 255, 255)" stroke="rgb(0, 0, 0)" pointer-events="all"/></g><g><g transform="translate(-0.5 -0.5)"><switch><foreignObject style="overflow: visible; text-align: left;" pointer-events="none" width="100%" height="100%" requiredFeatures="http://www.w3.org/TR/SVG11/feature#Extensibility"><div xmlns="http://www.w3.org/1999/xhtml" style="display: flex; align-items: unsafe center; justify-content: unsafe center; width: 118px; height: 1px; padding-top: 1079px; margin-left: 531px;"><div style="box-sizing: border-box; font-size: 0px; text-align: center;" data-drawio-colors="color: rgb(0, 0, 0); "><div style="display: inline-block; font-size: 12px; font-family: Helvetica; color: rgb(0, 0, 0); line-height: 1.2; pointer-events: all; font-weight: bold; font-style: italic; white-space: normal; overflow-wrap: normal;"><div>station.xml</div></div></div></div></foreignObject><text x="590" y="1083" fill="rgb(0, 0, 0)" font-family="Helvetica" font-size="12px" text-anchor="middle" font-weight="bold" font-style="italic">station.xml</text></switch></g></g><g><rect x="530" y="1120" width="120" height="60" fill="rgb(255, 255, 255)" stroke="rgb(0, 0, 0)" pointer-events="all"/></g><g><g transform="translate(-0.5 -0.5)"><switch><foreignObject style="overflow: visible; text-align: left;" pointer-events="none" width="100%" height="100%" requiredFeatures="http://www.w3.org/TR/SVG11/feature#Extensibility"><div xmlns="http://www.w3.org/1999/xhtml" style="display: flex; align-items: unsafe center; justify-content: unsafe center; width: 118px; height: 1px; padding-top: 1150px; margin-left: 531px;"><div style="box-sizing: border-box; font-size: 0px; text-align: center;" data-drawio-colors="color: rgb(0, 0, 0); "><div style="display: inline-block; font-size: 12px; font-family: Helvetica; color: rgb(0, 0, 0); line-height: 1.2; pointer-events: all; white-space: normal; overflow-wrap: normal;"><b><i>replace_all.py</i><br /></b></div></div></div></foreignObject><text x="590" y="1154" fill="rgb(0, 0, 0)" font-family="Helvetica" font-size="12px" text-anchor="middle">replace_all.py&#xa;</text></switch></g></g><g><path d="M 446 1115 L 530 1079" fill="none" stroke="rgb(0, 0, 0)" stroke-miterlimit="10" pointer-events="stroke"/></g><g><path d="M 446 1115 L 530 1150" fill="none" stroke="rgb(0, 0, 0)" stroke-miterlimit="10" pointer-events="stroke"/></g><g><path d="M 300 1380 L 300 1443.63" fill="none" stroke="rgb(0, 0, 0)" stroke-miterlimit="10" pointer-events="stroke"/><path d="M 300 1448.88 L 296.5 1441.88 L 300 1443.63 L 303.5 1441.88 Z" fill="rgb(0, 0, 0)" stroke="rgb(0, 0, 0)" stroke-miterlimit="10" pointer-events="all"/></g><g><rect x="240" y="1320" width="120" height="60" rx="9" ry="9" fill="rgb(255, 255, 255)" stroke="rgb(0, 0, 0)" pointer-events="all"/></g><g><g transform="translate(-0.5 -0.5)"><switch><foreignObject style="overflow: visible; text-align: left;" pointer-events="none" width="100%" height="100%" requiredFeatures="http://www.w3.org/TR/SVG11/feature#Extensibility"><div xmlns="http://www.w3.org/1999/xhtml" style="display: flex; align-items: unsafe center; justify-content: unsafe center; width: 118px; height: 1px; padding-top: 1350px; margin-left: 241px;"><div style="box-sizing: border-box; font-size: 0px; text-align: center;" data-drawio-colors="color: rgb(0, 0, 0); "><div style="display: inline-block; font-size: 12px; font-family: Helvetica; color: rgb(0, 0, 0); line-height: 1.2; pointer-events: all; white-space: normal; overflow-wrap: normal;">Hochladen der HTML-Datein, je Datei ein Abschnitt</div></div></div></foreignObject><text x="300" y="1354" fill="rgb(0, 0, 0)" font-family="Helvetica" font-size="12px" text-anchor="middle">Hochladen der HTML-D...</text></switch></g></g><g><path d="M 450 1380 L 450 1443.63" fill="none" stroke="rgb(0, 0, 0)" stroke-miterlimit="10" pointer-events="stroke"/><path d="M 450 1448.88 L 446.5 1441.88 L 450 1443.63 L 453.5 1441.88 Z" fill="rgb(0, 0, 0)" stroke="rgb(0, 0, 0)" stroke-miterlimit="10" pointer-events="all"/></g><g><rect x="390" y="1320" width="120" height="60" rx="9" ry="9" fill="rgb(255, 255, 255)" stroke="rgb(0, 0, 0)" pointer-events="all"/></g><g><g transform="translate(-0.5 -0.5)"><switch><foreignObject style="overflow: visible; text-align: left;" pointer-events="none" width="100%" height="100%" requiredFeatures="http://www.w3.org/TR/SVG11/feature#Extensibility"><div xmlns="http://www.w3.org/1999/xhtml" style="display: flex; align-items: unsafe center; justify-content: unsafe center; width: 118px; height: 1px; padding-top: 1350px; margin-left: 391px;"><div style="box-sizing: border-box; font-size: 0px; text-align: center;" data-drawio-colors="color: rgb(0, 0, 0); "><div style="display: inline-block; font-size: 12px; font-family: Helvetica; color: rgb(0, 0, 0); line-height: 1.2; pointer-events: all; white-space: normal; overflow-wrap: normal;">Konfigurieren des Kurses</div></div></div></foreignObject><text x="450" y="1354" fill="rgb(0, 0, 0)" font-family="Helvetica" font-size="12px" text-anchor="middle">Konfigurieren des Ku...</text></switch></g></g><g><path d="M 450 1510 L 450 1545 L 374 1545 L 374 1573.63" fill="none" stroke="rgb(0, 0, 0)" stroke-miterlimit="10" pointer-events="stroke"/><path d="M 374 1578.88 L 370.5 1571.88 L 374 1573.63 L 377.5 1571.88 Z" fill="rgb(0, 0, 0)" stroke="rgb(0, 0, 0)" stroke-miterlimit="10" pointer-events="all"/></g><g><path d="M 390 1450 L 510 1450 L 520 1480 L 510 1510 L 390 1510 L 380 1480 Z" fill="rgb(255, 255, 255)" stroke="rgb(0, 0, 0)" stroke-miterlimit="10" pointer-events="all"/></g><g><g transform="translate(-0.5 -0.5)"><switch><foreignObject style="overflow: visible; text-align: left;" pointer-events="none" width="100%" height="100%" requiredFeatures="http://www.w3.org/TR/SVG11/feature#Extensibility"><div xmlns="http://www.w3.org/1999/xhtml" style="display: flex; align-items: unsafe center; justify-content: unsafe center; width: 138px; height: 1px; padding-top: 1480px; margin-left: 381px;"><div style="box-sizing: border-box; font-size: 0px; text-align: center;" data-drawio-colors="color: rgb(0, 0, 0); "><div style="display: inline-block; font-size: 12px; font-family: Helvetica; color: rgb(0, 0, 0); line-height: 1.2; pointer-events: all; white-space: normal; overflow-wrap: normal;"><div>Kurs konfiguriert und einem Dozent zugewiesen</div></div></div></div></foreignObject><text x="450" y="1484" fill="rgb(0, 0, 0)" font-family="Helvetica" font-size="12px" text-anchor="middle">Kurs konfiguriert und e...</text></switch></g></g><g><path d="M 374 1640 L 374 1696.63" fill="none" stroke="rgb(0, 0, 0)" stroke-miterlimit="10" pointer-events="stroke"/><path d="M 374 1701.88 L 370.5 1694.88 L 374 1696.63 L 377.5 1694.88 Z" fill="rgb(0, 0, 0)" stroke="rgb(0, 0, 0)" stroke-miterlimit="10" pointer-events="all"/></g><g><rect x="314" y="1580" width="120" height="60" rx="9" ry="9" fill="rgb(255, 255, 255)" stroke="rgb(0, 0, 0)" pointer-events="all"/></g><g><g transform="translate(-0.5 -0.5)"><switch><foreignObject style="overflow: visible; text-align: left;" pointer-events="none" width="100%" height="100%" requiredFeatures="http://www.w3.org/TR/SVG11/feature#Extensibility"><div xmlns="http://www.w3.org/1999/xhtml" style="display: flex; align-items: unsafe center; justify-content: unsafe center; width: 118px; height: 1px; padding-top: 1610px; margin-left: 315px;"><div style="box-sizing: border-box; font-size: 0px; text-align: center;" data-drawio-colors="color: rgb(0, 0, 0); "><div style="display: inline-block; font-size: 12px; font-family: Helvetica; color: rgb(0, 0, 0); line-height: 1.2; pointer-events: all; white-space: normal; overflow-wrap: normal;">Protokollieren, wer welchen Kurs bekommt</div></div></div></foreignObject><text x="374" y="1614" fill="rgb(0, 0, 0)" font-family="Helvetica" font-size="12px" text-anchor="middle">Protokollieren, wer...</text></switch></g></g><g/><g><ellipse cx="75" cy="387.5" rx="75" ry="37.5" fill="rgb(255, 255, 255)" stroke="rgb(0, 0, 0)" pointer-events="all"/></g><g><g transform="translate(-0.5 -0.5)"><switch><foreignObject style="overflow: visible; text-align: left;" pointer-events="none" width="100%" height="100%" requiredFeatures="http://www.w3.org/TR/SVG11/feature#Extensibility"><div xmlns="http://www.w3.org/1999/xhtml" style="display: flex; align-items: unsafe center; justify-content: unsafe center; width: 148px; height: 1px; padding-top: 388px; margin-left: 1px;"><div style="box-sizing: border-box; font-size: 0px; text-align: center;" data-drawio-colors="color: rgb(0, 0, 0); "><div style="display: inline-block; font-size: 12px; font-family: Helvetica; color: rgb(0, 0, 0); line-height: 1.2; pointer-events: all; white-space: normal; overflow-wrap: normal;">Der zuständige für die Migration</div></div></div></foreignObject><text x="75" y="391" fill="rgb(0, 0, 0)" font-family="Helvetica" font-size="12px" text-anchor="middle">Der zuständige für die Mi...</text></switch></g></g><g><path d="M 21.61 413.84 L 21.61 361.16" fill="none" stroke="rgb(0, 0, 0)" stroke-miterlimit="10" pointer-events="stroke"/></g><g><path d="M 200 1325 L 240 1335" fill="none" stroke="rgb(0, 0, 0)" stroke-miterlimit="10" pointer-events="stroke"/></g><g><rect x="80" y="1280" width="120" height="60" fill="rgb(255, 255, 255)" stroke="rgb(0, 0, 0)" pointer-events="all"/></g><g><g transform="translate(-0.5 -0.5)"><switch><foreignObject style="overflow: visible; text-align: left;" pointer-events="none" width="100%" height="100%" requiredFeatures="http://www.w3.org/TR/SVG11/feature#Extensibility"><div xmlns="http://www.w3.org/1999/xhtml" style="display: flex; align-items: unsafe center; justify-content: unsafe center; width: 118px; height: 1px; padding-top: 1310px; margin-left: 81px;"><div style="box-sizing: border-box; font-size: 0px; text-align: center;" data-drawio-colors="color: rgb(0, 0, 0); "><div style="display: inline-block; font-size: 12px; font-family: Helvetica; color: rgb(0, 0, 0); line-height: 1.2; pointer-events: all; font-weight: bold; font-style: italic; white-space: normal; overflow-wrap: normal;"><div>station.html</div></div></div></div></foreignObject><text x="140" y="1314" fill="rgb(0, 0, 0)" font-family="Helvetica" font-size="12px" text-anchor="middle" font-weight="bold" font-style="italic">station.html</text></switch></g></g><g><rect x="80" y="1350" width="120" height="60" fill="rgb(255, 255, 255)" stroke="rgb(0, 0, 0)" pointer-events="all"/></g><g><g transform="translate(-0.5 -0.5)"><switch><foreignObject style="overflow: visible; text-align: left;" pointer-events="none" width="100%" height="100%" requiredFeatures="http://www.w3.org/TR/SVG11/feature#Extensibility"><div xmlns="http://www.w3.org/1999/xhtml" style="display: flex; align-items: unsafe center; justify-content: unsafe center; width: 118px; height: 1px; padding-top: 1380px; margin-left: 81px;"><div style="box-sizing: border-box; font-size: 0px; text-align: center;" data-drawio-colors="color: rgb(0, 0, 0); "><div style="display: inline-block; font-size: 12px; font-family: Helvetica; color: rgb(0, 0, 0); line-height: 1.2; pointer-events: all; font-weight: bold; font-style: italic; white-space: normal; overflow-wrap: normal;"><div>moodle-Kurs</div></div></div></div></foreignObject><text x="140" y="1384" fill="rgb(0, 0, 0)" font-family="Helvetica" font-size="12px" text-anchor="middle" font-weight="bold" font-style="italic">moodle-Kurs</text></switch></g></g><g><path d="M 200 1380 L 240 1350" fill="none" stroke="rgb(0, 0, 0)" stroke-miterlimit="10" pointer-events="stroke"/></g><g><ellipse cx="375" cy="685" rx="20" ry="20" fill="rgb(255, 255, 255)" stroke="rgb(0, 0, 0)" pointer-events="all"/></g><g><g transform="translate(-0.5 -0.5)"><switch><foreignObject style="overflow: visible; text-align: left;" pointer-events="none" width="100%" height="100%" requiredFeatures="http://www.w3.org/TR/SVG11/feature#Extensibility"><div xmlns="http://www.w3.org/1999/xhtml" style="display: flex; align-items: unsafe center; justify-content: unsafe center; width: 38px; height: 1px; padding-top: 685px; margin-left: 356px;"><div style="box-sizing: border-box; font-size: 0px; text-align: center;" data-drawio-colors="color: rgb(0, 0, 0); "><div style="display: inline-block; font-size: 12px; font-family: Helvetica; color: rgb(0, 0, 0); line-height: 1.2; pointer-events: all; white-space: normal; overflow-wrap: normal;">⋀</div></div></div></foreignObject><text x="375" y="689" fill="rgb(0, 0, 0)" font-family="Helvetica" font-size="12px" text-anchor="middle">⋀</text></switch></g></g><g><ellipse cx="374" cy="1291" rx="20" ry="20" fill="rgb(255, 255, 255)" stroke="rgb(0, 0, 0)" pointer-events="all"/></g><g><g transform="translate(-0.5 -0.5)"><switch><foreignObject style="overflow: visible; text-align: left;" pointer-events="none" width="100%" height="100%" requiredFeatures="http://www.w3.org/TR/SVG11/feature#Extensibility"><div xmlns="http://www.w3.org/1999/xhtml" style="display: flex; align-items: unsafe center; justify-content: unsafe center; width: 38px; height: 1px; padding-top: 1291px; margin-left: 355px;"><div style="box-sizing: border-box; font-size: 0px; text-align: center;" data-drawio-colors="color: rgb(0, 0, 0); "><div style="display: inline-block; font-size: 12px; font-family: Helvetica; color: rgb(0, 0, 0); line-height: 1.2; pointer-events: all; white-space: normal; overflow-wrap: normal;">⋀</div></div></div></foreignObject><text x="374" y="1295" fill="rgb(0, 0, 0)" font-family="Helvetica" font-size="12px" text-anchor="middle">⋀</text></switch></g></g><g><path d="M 250 1450 L 350 1450 L 360 1480 L 350 1510 L 250 1510 L 240 1480 Z" fill="rgb(255, 255, 255)" stroke="rgb(0, 0, 0)" stroke-miterlimit="10" pointer-events="all"/></g><g><g transform="translate(-0.5 -0.5)"><switch><foreignObject style="overflow: visible; text-align: left;" pointer-events="none" width="100%" height="100%" requiredFeatures="http://www.w3.org/TR/SVG11/feature#Extensibility"><div xmlns="http://www.w3.org/1999/xhtml" style="display: flex; align-items: unsafe center; justify-content: unsafe center; width: 118px; height: 1px; padding-top: 1480px; margin-left: 241px;"><div style="box-sizing: border-box; font-size: 0px; text-align: center;" data-drawio-colors="color: rgb(0, 0, 0); "><div style="display: inline-block; font-size: 12px; font-family: Helvetica; color: rgb(0, 0, 0); line-height: 1.2; pointer-events: all; white-space: normal; overflow-wrap: normal;">HTML-Datein erfolgreich hochgeladen</div></div></div></foreignObject><text x="300" y="1484" fill="rgb(0, 0, 0)" font-family="Helvetica" font-size="12px" text-anchor="middle">HTML-Datein erfolgre...</text></switch></g></g><g><path d="M 324 1703 L 424 1703 L 434 1733 L 424 1763 L 324 1763 L 314 1733 Z" fill="rgb(255, 255, 255)" stroke="rgb(0, 0, 0)" stroke-miterlimit="10" pointer-events="all"/></g><g><g transform="translate(-0.5 -0.5)"><switch><foreignObject style="overflow: visible; text-align: left;" pointer-events="none" width="100%" height="100%" requiredFeatures="http://www.w3.org/TR/SVG11/feature#Extensibility"><div xmlns="http://www.w3.org/1999/xhtml" style="display: flex; align-items: unsafe center; justify-content: unsafe center; width: 118px; height: 1px; padding-top: 1733px; margin-left: 315px;"><div style="box-sizing: border-box; font-size: 0px; text-align: center;" data-drawio-colors="color: rgb(0, 0, 0); "><div style="display: inline-block; font-size: 12px; font-family: Helvetica; color: rgb(0, 0, 0); line-height: 1.2; pointer-events: all; white-space: normal; overflow-wrap: normal;">Protokoliert</div></div></div></foreignObject><text x="374" y="1737" fill="rgb(0, 0, 0)" font-family="Helvetica" font-size="12px" text-anchor="middle">Protokoliert</text></switch></g></g></g><switch><g requiredFeatures="http://www.w3.org/TR/SVG11/feature#Extensibility"/><a transform="translate(0,-5)" xlink:href="https://www.drawio.com/doc/faq/svg-export-text-problems" target="_blank"><text text-anchor="middle" font-size="10px" x="50%" y="100%">Text is not SVG - cannot display</text></a></switch></svg>