<?xml version="1.0" encoding="UTF-8" standalone="no"?><svg xmlns="http://www.w3.org/2000/svg" xmlns:xlink="http://www.w3.org/1999/xlink" contentScriptType="application/ecmascript" contentStyleType="text/css" height="144px" preserveAspectRatio="none" style="width:241px;height:144px;" version="1.1" viewBox="0 0 241 144" width="241px" zoomAndPan="magnify"><defs><filter height="300%" id="f1tux71oxbmfst" width="300%" x="-1" y="-1"><feGaussianBlur result="blurOut" stdDeviation="2.0"/><feColorMatrix in="blurOut" result="blurOut2" type="matrix" values="0 0 0 0 0 0 0 0 0 0 0 0 0 0 0 0 0 0 .4 0"/><feOffset dx="4.0" dy="4.0" in="blurOut2" result="blurOut3"/><feBlend in="SourceGraphic" in2="blurOut3" mode="normal"/></filter></defs><g><!--MD5=[4b1943330811241b39549f0db8d9ffdb]
cluster X--><rect fill="#FFFFFF" filter="url(#f1tux71oxbmfst)" height="52" style="stroke: #000000; stroke-width: 1.5;" width="108" x="122" y="44"/><rect fill="#FFFFFF" height="10" style="stroke: #000000; stroke-width: 1.5;" width="15" x="210" y="49"/><rect fill="#FFFFFF" height="2" style="stroke: #000000; stroke-width: 1.5;" width="4" x="208" y="51"/><rect fill="#FFFFFF" height="2" style="stroke: #000000; stroke-width: 1.5;" width="4" x="208" y="55"/><text fill="#000000" font-family="sans-serif" font-size="14" font-weight="bold" lengthAdjust="spacingAndGlyphs" textLength="10" x="171" y="69.9951">X</text><text fill="#000000" font-family="sans-serif" font-size="14" lengthAdjust="spacingAndGlyphs" textLength="0" x="124" y="48.6982"/><rect fill="#A80036" height="12" style="stroke: #FEFECE; stroke-width: 1.5;" width="12" x="116" y="64"/><!--MD5=[36d09f02135c818e77ea4d3594352c2a]
entity Y--><rect fill="#FEFECE" filter="url(#f1tux71oxbmfst)" height="46.2969" style="stroke: #A80036; stroke-width: 1.5;" width="49" x="6.5" y="87"/><rect fill="#FEFECE" height="10" style="stroke: #A80036; stroke-width: 1.5;" width="15" x="35.5" y="92"/><rect fill="#FEFECE" height="2" style="stroke: #A80036; stroke-width: 1.5;" width="4" x="33.5" y="94"/><rect fill="#FEFECE" height="2" style="stroke: #A80036; stroke-width: 1.5;" width="4" x="33.5" y="98"/><text fill="#000000" font-family="sans-serif" font-size="14" lengthAdjust="spacingAndGlyphs" textLength="9" x="21.5" y="119.9951">Y</text><!--MD5=[82938215ffa17339289e6d1ab32e6364]
entity Z--><rect fill="#FEFECE" filter="url(#f1tux71oxbmfst)" height="46.2969" style="stroke: #A80036; stroke-width: 1.5;" width="50" x="6" y="6"/><rect fill="#FEFECE" height="10" style="stroke: #A80036; stroke-width: 1.5;" width="15" x="36" y="11"/><rect fill="#FEFECE" height="2" style="stroke: #A80036; stroke-width: 1.5;" width="4" x="34" y="13"/><rect fill="#FEFECE" height="2" style="stroke: #A80036; stroke-width: 1.5;" width="4" x="34" y="17"/><text fill="#000000" font-family="sans-serif" font-size="14" lengthAdjust="spacingAndGlyphs" textLength="10" x="21" y="38.9951">Z</text><!--MD5=[821e846e99168a558b044df918fbef95]
link Y to x_out--><path d="M55.8661,99.0698 C76.2842,90.0949 103.7355,78.0284 115.8346,72.7101 " fill="none" id="Y-x_out" style="stroke: #A80036; stroke-width: 1.0;"/><path d="M98.2887,88.1466 A10,10 0 0 0 92.5979 75.2" fill="#FFFFFF" style="stroke: #A80036; stroke-width: 1.5;"/><ellipse cx="88.97" cy="84.5187" fill="#FFFFFF" rx="6" ry="6" style="stroke: #A80036; stroke-width: 1.5;"/><!--MD5=[4819595a9f8062d795f6d9927886b8df]
link Z to x_out--><path d="M56.3486,40.4208 C76.7536,49.6142 103.9345,61.8606 115.9035,67.2532 " fill="none" id="Z-x_out" style="stroke: #A80036; stroke-width: 1.0;"/><path d="M92.8318,64.6139 A10,10 0 0 0 98.6411 51.72" fill="#FFFFFF" style="stroke: #A80036; stroke-width: 1.5;"/><ellipse cx="89.2896" cy="55.2623" fill="#FFFFFF" rx="6" ry="6" style="stroke: #A80036; stroke-width: 1.5;"/><!--MD5=[773b60bedde3b288fac92133e84cb54a]
@startuml
skinparam componentstyle uml2
left to right direction

component X {
    port " " as x_out
}

'u for layouting it more nicely, 0) for lollipop
x_out -u0)- [Y]
x_out -u0)- [Z]

@enduml

@startuml
skinparam componentstyle uml2
left to right direction

component X {
    port " " as x_out
}

x_out -u0)- [Y]
x_out -u0)- [Z]

@enduml

PlantUML version 1.2020.12(Sat Jun 06 12:54:15 CEST 2020)
(GPL source distribution)
Java Runtime: OpenJDK Runtime Environment
JVM: OpenJDK 64-Bit Server VM
Default Encoding: UTF-8
Language: de
Country: DE
--></g></svg>